{
  "last": 10,
  "prePage": 1,
  "nextPage": 2,
  "start": 0,
  "pageSize": 10,
  "description": "查询成功！",
  "hasNext": true,
  "totalCount": 41,
  "hasPre": false,
  "result": [{
    "BOOK_SYS_AUTHORS": "测试",
    "BOOK_TEXT_TYPE": "",
    "pub_is_eb": 1,
    "pub_picBig": "/portal/file/covjpg/112TCURXUWGP12235245.jpg",
    "BOOK_SYS_TOPIC": "测试安卓阅读5（epub,100,邓林）",
    "pub_created": 1521081511000,
    "BOOK_ISBN": "17323232",
    "pub_col_name": "重磅推荐",
    "prod_id": 175,
    "BOOK_COPYRIGHT_MSG": "",
    "BOOK_SYNOPSIS": "",
    "BOOK_REMARK": "",
    "BOOK_FORMAT": "全开",
    "prod_member_price": 100,
    "BOOK_FITMENT": "",
    "id": "75",
    "pub_a_order1": -1.0400103E7,
    "pub_resource_type": "BOOK",
    "BOOK_BOOK_CASCADID_1": ["81047"],
    "pub_a_order": -1.04001038000104E7,
    "pub_a_order2": 8.000104E9,
    "pub_star_num": 0,
    "prod_sale_price": 100,
    "BOOK_KEYWORDS": "",
    "BOOK_DEPART": "",
    "pub_resource_id": 375140,
    "pub_status": 1,
    "BOOK_PRESS_NAME": "测试",
    "pub_comment_num": 0,
    "BOOK_PROOF_EDITOR": "",
    "pub_click_num": 0,
    "BOOK_BOOK_CAT": "教辅",
    "BOOK_EDITOR": "",
    "pub_sales_num": 0,
    "prod_code": "188800000175",
    "BOOK_COVER_DESIGNER": "",
    "pub_downloads_num": 0,
    "BOOK_SERIES_NAME": "",
    "pub_read_num": 14,
    "BOOK_MAJOR_EDITOR": "",
    "BOOK_EB_PRICE": 100,
    "BOOK_BOOK_CATID": 81047,
    "prod_product_type": "94",
    "BOOK_COPY_DESIGNER": "",
    "pub_site_id": 5,
    "BOOK_PRINT_COMPANY": "",
    "pub_like_num": 0,
    "BOOK_LANGUAGE": "中文",
    "BOOK_BOOK_CASCADID": ["81047"],
    "BOOK_PRINT_VERSION": 1,
    "pub_lastmodified": 1521081511000,
    "prod_name": "测试安卓阅读5（epub,100,邓林）",
    "BOOK_CLC_CAT": "",
    "pub_resource_name": "测试安卓阅读5（epub,100,邓林）",
    "BOOK_BSN": "",
    "pub_col_id": 104,
    "_version_": 1594985325695860736,
    "pub_content_type": "94",
    "pub_picSmall": "/portal/file/covjpg/112TCURXUWGP12235245_s.jpg",
    "BOOK_SYS_CREATED": 1509993236963,
    "pub_picMiddle": "/portal/file/covjpg/112TCURXUWGP12235245_m.jpg",
    "BOOK_BOOK_VERSION": 1,
    "prod_resource_type": "BOOK"
  }, {
    "BOOK_SYS_AUTHORS": "作者威廉· 萨默赛特·毛姆",
    "BOOK_TEXT_TYPE": "1212",
    "pub_is_eb": 1,
    "pub_picBig": "/portal/file/covjpg/155IGJ8PEWL0J0509864.jpg",
    "BOOK_SYS_TOPIC": "月亮和六便士",
    "pub_created": 1521081173000,
    "BOOK_ISBN": "173213234",
    "pub_col_name": "重磅推荐",
    "prod_id": 112,
    "BOOK_COPYRIGHT_MSG": "威廉· 萨默赛特·毛姆",
    "BOOK_SYNOPSIS": "威廉· 萨默赛特·毛姆",
    "BOOK_REMARK": "威廉· 萨默赛特·毛姆",
    "BOOK_FORMAT": "全开",
    "BOOK_CLC_CASCADID": ["29635"],
    "prod_member_price": 0,
    "BOOK_FITMENT": "威廉· 萨默赛特·毛姆",
    "BOOK_TEXT_NUM": 1212,
    "BOOK_PRINTED_SHEETS": 1212,
    "id": "12",
    "pub_a_order1": -1.0400103E7,
    "pub_resource_type": "BOOK",
    "BOOK_CLC_CASCADID_1": ["29635"],
    "BOOK_BOOK_CASCADID_1": ["88340"],
    "pub_a_order": -1.0400103200010398E7,
    "pub_a_order2": 2.00010398E9,
    "pub_star_num": 3.8333333333333335,
    "prod_sale_price": 0,
    "BOOK_DEPART_CASCADID": "168400",
    "BOOK_KEYWORDS": "威廉· 萨默赛特·毛姆",
    "BOOK_DEPART": "教育社",
    "pub_resource_id": 375394,
    "pub_status": 1,
    "BOOK_PRESS_NAME": "shanghai ",
    "pub_comment_num": 3,
    "BOOK_PROOF_EDITOR": "威廉· 萨默赛特·毛姆",
    "pub_click_num": 0,
    "BOOK_WORDS": 12323,
    "BOOK_BOOK_CAT": "计算机",
    "pub_POSTER": ["/portal/file/image/1593LFOU1CDTD2244521.jpg"],
    "BOOK_EDITOR": "威廉· 萨默赛特·毛姆",
    "pub_sales_num": 0,
    "prod_code": "188800000112",
    "BOOK_COVER_DESIGNER": "威廉· 萨默赛特·毛姆",
    "pub_downloads_num": 0,
    "BOOK_SERIES_NAME": "213413412",
    "pub_read_num": 10,
    "BOOK_MAJOR_EDITOR": "测试主编威廉· 萨默赛特·毛姆",
    "BOOK_EB_PRICE": 0,
    "BOOK_PUBDATE": 1510790400000,
    "BOOK_BOOK_CATID": 88340,
    "prod_product_type": "94",
    "BOOK_COPY_DESIGNER": "威廉· 萨默赛特·毛姆",
    "pub_site_id": 5,
    "BOOK_PRINT_COMPANY": "威廉· 萨默赛特·毛姆",
    "pub_like_num": 0,
    "BOOK_LANGUAGE": "中文",
    "BOOK_BOOK_CASCADID": ["88340"],
    "BOOK_PRINT_VERSION": 12,
    "pub_lastmodified": 1521081173000,
    "BOOK_CLC_CATID": 29635,
    "prod_name": "月亮和六便士",
    "BOOK_CLC_CAT": "马克思主义、列宁主义、毛泽东思想、邓小平理论",
    "pub_resource_name": "月亮和六便士",
    "BOOK_BSN": "123231312",
    "BOOK_PRICE": 0,
    "pub_col_id": 104,
    "_version_": 1594982305844166656,
    "pub_content_type": "94",
    "BOOK_DEPART_CASCADID_1": ["168400"],
    "pub_picSmall": "/portal/file/covjpg/155IGJ8PEWL0J0509864_s.jpg",
    "BOOK_SYS_CREATED": 1510851900503,
    "pub_picMiddle": "/portal/file/covjpg/155IGJ8PEWL0J0509864_m.jpg",
    "BOOK_BOOK_VERSION": 12,
    "prod_resource_type": "BOOK"
  }, {
    "BOOK_SYS_AUTHORS": "智享",
    "BOOK_TEXT_TYPE": "",
    "pub_is_eb": 1,
    "BOOK_SYS_TOPIC": "测试图书（试读PDF，全本epub）",
    "pub_created": 1521081191000,
    "BOOK_ISBN": "978323233",
    "pub_col_name": "重磅推荐",
    "prod_id": 119,
    "BOOK_COPYRIGHT_MSG": "",
    "BOOK_SYNOPSIS": "",
    "BOOK_REMARK": "",
    "BOOK_FORMAT": "全开",
    "prod_member_price": 88,
    "BOOK_FITMENT": "",
    "id": "19",
    "pub_a_order1": -1.0400103E7,
    "pub_resource_type": "BOOK",
    "BOOK_BOOK_CASCADID_1": ["88340"],
    "pub_a_order": -1.04001033000104E7,
    "pub_a_order2": 3.000104E9,
    "BOOK_BOOK_CASCADID_2": ["88342"],
    "pub_star_num": 0,
    "prod_sale_price": 88,
    "BOOK_KEYWORDS": "",
    "BOOK_DEPART": "",
    "pub_resource_id": 375343,
    "pub_status": 1,
    "BOOK_PRESS_NAME": "1",
    "pub_comment_num": 0,
    "BOOK_PROOF_EDITOR": "",
    "pub_click_num": 0,
    "BOOK_BOOK_CAT": "计算机~JAVA",
    "BOOK_EDITOR": "",
    "pub_sales_num": 2,
    "prod_code": "188800000119",
    "BOOK_COVER_DESIGNER": "",
    "pub_downloads_num": 0,
    "BOOK_SERIES_NAME": "",
    "pub_read_num": 8,
    "BOOK_MAJOR_EDITOR": "",
    "BOOK_EB_PRICE": 88,
    "BOOK_PUBDATE": 1510704000000,
    "pub_priview_txtlpdf": ["/portal/file/priviewTxtlpdf/133IWG7HEGLYX5505556.pdf"],
    "BOOK_BOOK_CATID": 88342,
    "prod_product_type": "94",
    "BOOK_COPY_DESIGNER": "",
    "pub_site_id": 5,
    "BOOK_PRINT_COMPANY": "",
    "pub_like_num": 0,
    "BOOK_LANGUAGE": "中文",
    "BOOK_BOOK_CASCADID": ["88340_88342"],
    "BOOK_PRINT_VERSION": 1,
    "pub_lastmodified": 1521081191000,
    "prod_name": "测试图书（试读PDF，全本epub）",
    "BOOK_CLC_CAT": "",
    "pub_resource_name": "测试图书（试读PDF，全本epub）",
    "BOOK_BSN": "",
    "pub_col_id": 104,
    "_version_": 1594988723173326848,
    "pub_content_type": "94",
    "BOOK_SYS_CREATED": 1510761274880,
    "BOOK_BOOK_VERSION": 1,
    "prod_resource_type": "BOOK"
  }, {
    "BOOK_SYS_AUTHORS": "",
    "BOOK_TEXT_TYPE": "",
    "pub_is_eb": 1,
    "BOOK_SYS_TOPIC": "测试图书（只有全本PDF文件）",
    "pub_created": 1521081190000,
    "BOOK_ISBN": "978323233",
    "pub_col_name": "重磅推荐",
    "prod_id": 114,
    "BOOK_COPYRIGHT_MSG": "",
    "BOOK_SYNOPSIS": "",
    "BOOK_REMARK": "",
    "BOOK_FORMAT": "全开",
    "prod_member_price": 50,
    "BOOK_FITMENT": "",
    "id": "14",
    "pub_a_order1": -1.0400103E7,
    "pub_resource_type": "BOOK",
    "BOOK_BOOK_CASCADID_1": ["88340"],
    "pub_a_order": -1.04001033000104E7,
    "pub_a_order2": 3.000104E9,
    "BOOK_BOOK_CASCADID_2": ["88342"],
    "pub_star_num": 0,
    "prod_sale_price": 50,
    "BOOK_KEYWORDS": "",
    "BOOK_DEPART": "",
    "pub_resource_id": 375374,
    "pub_status": 1,
    "BOOK_PRESS_NAME": "1",
    "pub_comment_num": 0,
    "BOOK_PROOF_EDITOR": "",
    "pub_click_num": 0,
    "BOOK_BOOK_CAT": "计算机~JAVA",
    "BOOK_EDITOR": "",
    "pub_sales_num": 2,
    "prod_code": "188800000114",
    "BOOK_COVER_DESIGNER": "",
    "pub_downloads_num": 0,
    "BOOK_SERIES_NAME": "",
    "pub_read_num": 8,
    "BOOK_MAJOR_EDITOR": "",
    "BOOK_EB_PRICE": 50,
    "BOOK_PUBDATE": 1510790400000,
    "BOOK_BOOK_CATID": 88342,
    "prod_product_type": "94",
    "BOOK_COPY_DESIGNER": "",
    "pub_site_id": 5,
    "BOOK_PRINT_COMPANY": "",
    "pub_like_num": 0,
    "BOOK_LANGUAGE": "中文",
    "BOOK_BOOK_CASCADID": ["88340_88342"],
    "BOOK_PRINT_VERSION": 1,
    "pub_lastmodified": 1521081190000,
    "prod_name": "测试图书（只有全本PDF文件）",
    "BOOK_CLC_CAT": "",
    "pub_resource_name": "测试图书（只有全本PDF文件）",
    "BOOK_BSN": "",
    "pub_col_id": 104,
    "_version_": 1594988408604721152,
    "pub_content_type": "94",
    "BOOK_SYS_CREATED": 1510825159653,
    "BOOK_BOOK_VERSION": 1,
    "prod_resource_type": "BOOK"
  }, {
    "BOOK_SYS_AUTHORS": "智享测试",
    "BOOK_TEXT_TYPE": "",
    "pub_is_eb": 1,
    "pub_picBig": "/portal/file/covjpg/1153CMLYFJJQV2349282.jpg",
    "BOOK_SYS_TOPIC": "呼啸山庄（pdf,1.1，邓林）",
    "pub_created": 1521081373000,
    "BOOK_ISBN": "978-7-5059-9394-5",
    "pub_col_name": "重磅推荐",
    "prod_id": 144,
    "BOOK_COPYRIGHT_MSG": "",
    "BOOK_SYNOPSIS": "",
    "BOOK_REMARK": "",
    "BOOK_FORMAT": "全开",
    "BOOK_CLC_CASCADID": ["33839"],
    "prod_member_price": 1.1,
    "BOOK_FITMENT": "",
    "id": "44",
    "pub_a_order1": -1.0400103E7,
    "pub_resource_type": "BOOK",
    "BOOK_CLC_CASCADID_1": ["33839"],
    "BOOK_BOOK_CASCADID_1": ["81043"],
    "pub_a_order": -1.0400103600010399E7,
    "pub_a_order2": 6.00010399E9,
    "BOOK_BOOK_CASCADID_2": ["81056"],
    "pub_star_num": 0,
    "prod_sale_price": 1.1,
    "BOOK_DEPART_CASCADID": "168399",
    "BOOK_KEYWORDS": "",
    "BOOK_DEPART": "上海辞书出版社",
    "pub_resource_id": 374912,
    "pub_status": 1,
    "BOOK_PRESS_NAME": "方正出版社",
    "pub_comment_num": 0,
    "BOOK_PROOF_EDITOR": "",
    "pub_click_num": 0,
    "BOOK_BOOK_CAT": "基础教育分社~诗歌",
    "BOOK_EDITOR": "",
    "pub_sales_num": 2,
    "prod_code": "188800000144",
    "BOOK_COVER_DESIGNER": "",
    "pub_downloads_num": 0,
    "BOOK_SERIES_NAME": "",
    "pub_read_num": 5,
    "BOOK_MAJOR_EDITOR": "",
    "BOOK_EB_PRICE": 1.1,
    "BOOK_BOOK_CATID": 81056,
    "prod_product_type": "94",
    "BOOK_COPY_DESIGNER": "",
    "pub_site_id": 5,
    "BOOK_PRINT_COMPANY": "",
    "pub_like_num": 0,
    "BOOK_LANGUAGE": "中文",
    "BOOK_BOOK_CASCADID": ["81043_81056"],
    "BOOK_PRINT_VERSION": 1,
    "pub_lastmodified": 1521081373000,
    "BOOK_CLC_CATID": 33839,
    "prod_name": "呼啸山庄（pdf,1.1，邓林）",
    "BOOK_CLC_CAT": "文化、科学、教育、体育",
    "pub_resource_name": "呼啸山庄（pdf,1.1，邓林）",
    "BOOK_BSN": "",
    "BOOK_PRICE": 1.3,
    "pub_col_id": 104,
    "_version_": 1594989101101088768,
    "pub_content_type": "94",
    "BOOK_DEPART_CASCADID_1": ["168399"],
    "pub_picSmall": "/portal/file/covjpg/1153CMLYFJJQV2349282_s.jpg",
    "BOOK_SYS_CREATED": 1509472747663,
    "pub_picMiddle": "/portal/file/covjpg/1153CMLYFJJQV2349282_m.jpg",
    "BOOK_BOOK_VERSION": 1,
    "prod_resource_type": "BOOK"
  }, {
    "BOOK_SYS_AUTHORS": "",
    "BOOK_TEXT_TYPE": "",
    "pub_is_eb": 1,
    "BOOK_SYS_TOPIC": "测试图书（只有试读PDF文件）",
    "pub_created": 1521081191000,
    "BOOK_ISBN": "978323233",
    "pub_col_name": "重磅推荐",
    "prod_id": 117,
    "BOOK_COPYRIGHT_MSG": "",
    "BOOK_SYNOPSIS": "",
    "BOOK_REMARK": "",
    "BOOK_FORMAT": "全开",
    "prod_member_price": 6.66,
    "BOOK_FITMENT": "",
    "id": "17",
    "pub_a_order1": -1.0400103E7,
    "pub_resource_type": "BOOK",
    "BOOK_BOOK_CASCADID_1": ["88340"],
    "pub_a_order": -1.04001033000104E7,
    "pub_a_order2": 3.000104E9,
    "BOOK_BOOK_CASCADID_2": ["88342"],
    "pub_star_num": 0,
    "prod_sale_price": 6.66,
    "BOOK_KEYWORDS": "",
    "BOOK_DEPART": "",
    "pub_resource_id": 375345,
    "pub_status": 1,
    "BOOK_PRESS_NAME": "1",
    "pub_comment_num": 0,
    "BOOK_PROOF_EDITOR": "",
    "pub_click_num": 0,
    "BOOK_BOOK_CAT": "计算机~JAVA",
    "BOOK_EDITOR": "",
    "pub_sales_num": 2,
    "prod_code": "188800000117",
    "BOOK_COVER_DESIGNER": "",
    "pub_downloads_num": 0,
    "BOOK_SERIES_NAME": "",
    "pub_read_num": 5,
    "BOOK_MAJOR_EDITOR": "",
    "BOOK_EB_PRICE": 6.66,
    "BOOK_PUBDATE": 1510790400000,
    "pub_priview_txtlpdf": ["/portal/file/priviewTxtlpdf/1352TVVCPAP565803344.pdf"],
    "BOOK_BOOK_CATID": 88342,
    "prod_product_type": "94",
    "BOOK_COPY_DESIGNER": "",
    "pub_site_id": 5,
    "BOOK_PRINT_COMPANY": "",
    "pub_like_num": 0,
    "BOOK_LANGUAGE": "中文",
    "BOOK_BOOK_CASCADID": ["88340_88342"],
    "BOOK_PRINT_VERSION": 1,
    "pub_lastmodified": 1521081191000,
    "prod_name": "测试图书（只有试读PDF文件）",
    "BOOK_CLC_CAT": "",
    "pub_resource_name": "测试图书（只有试读PDF文件）",
    "BOOK_BSN": "",
    "pub_col_id": 104,
    "_version_": 1594993630355914752,
    "pub_content_type": "94",
    "BOOK_SYS_CREATED": 1510761475067,
    "BOOK_BOOK_VERSION": 1,
    "prod_resource_type": "BOOK"
  }, {
    "BOOK_SYS_AUTHORS": "测试",
    "BOOK_TEXT_TYPE": "",
    "pub_is_eb": 1,
    "pub_picBig": "/portal/file/covjpg/1006RKEL1M7LG3217332.jpg",
    "BOOK_SYS_TOPIC": "测试安卓阅读4（epub，9，邓林）",
    "pub_created": 1521081511000,
    "BOOK_ISBN": "17323232",
    "pub_col_name": "重磅推荐",
    "prod_id": 176,
    "BOOK_COPYRIGHT_MSG": "",
    "BOOK_SYNOPSIS": "",
    "BOOK_REMARK": "",
    "BOOK_FORMAT": "全开",
    "prod_member_price": 9,
    "BOOK_FITMENT": "",
    "id": "76",
    "pub_a_order1": -1.0400103E7,
    "pub_resource_type": "BOOK",
    "BOOK_BOOK_CASCADID_1": ["81047"],
    "pub_a_order": -1.04001038000104E7,
    "pub_a_order2": 8.000104E9,
    "pub_star_num": 0,
    "prod_sale_price": 9,
    "BOOK_KEYWORDS": "",
    "BOOK_DEPART": "",
    "pub_resource_id": 375138,
    "pub_status": 1,
    "BOOK_PRESS_NAME": "测试",
    "pub_comment_num": 0,
    "BOOK_PROOF_EDITOR": "",
    "pub_click_num": 0,
    "BOOK_BOOK_CAT": "教辅",
    "BOOK_EDITOR": "",
    "pub_sales_num": 0,
    "prod_code": "188800000176",
    "BOOK_COVER_DESIGNER": "",
    "pub_downloads_num": 0,
    "BOOK_SERIES_NAME": "",
    "pub_read_num": 4,
    "BOOK_MAJOR_EDITOR": "",
    "BOOK_EB_PRICE": 9,
    "BOOK_BOOK_CATID": 81047,
    "prod_product_type": "94",
    "BOOK_COPY_DESIGNER": "",
    "pub_site_id": 5,
    "BOOK_PRINT_COMPANY": "",
    "pub_like_num": 0,
    "BOOK_LANGUAGE": "中文",
    "BOOK_BOOK_CASCADID": ["81047"],
    "BOOK_PRINT_VERSION": 1,
    "pub_lastmodified": 1521081511000,
    "prod_name": "测试安卓阅读4（epub，9，邓林）",
    "BOOK_CLC_CAT": "",
    "pub_resource_name": "测试安卓阅读4（epub，9，邓林）",
    "BOOK_BSN": "",
    "pub_col_id": 104,
    "_version_": 1594985325882507264,
    "pub_content_type": "94",
    "pub_picSmall": "/portal/file/covjpg/1006RKEL1M7LG3217332_s.jpg",
    "BOOK_SYS_CREATED": 1509993111927,
    "pub_picMiddle": "/portal/file/covjpg/1006RKEL1M7LG3217332_m.jpg",
    "BOOK_BOOK_VERSION": 5,
    "prod_resource_type": "BOOK"
  }, {
    "BOOK_SYS_AUTHORS": "",
    "BOOK_TEXT_TYPE": "",
    "pub_is_eb": 1,
    "pub_picBig": "/portal/file/covjpg/118M2S2VEUWFN5458173.jpg",
    "BOOK_SYS_TOPIC": "测试pdf试读文件",
    "pub_created": 1521081358000,
    "BOOK_ISBN": "17324324",
    "pub_col_name": "重磅推荐",
    "prod_id": 140,
    "BOOK_COPYRIGHT_MSG": "",
    "BOOK_SYNOPSIS": "",
    "BOOK_REMARK": "",
    "BOOK_FORMAT": "全开",
    "prod_member_price": 0,
    "BOOK_FITMENT": "",
    "id": "40",
    "pub_a_order1": -1.0400103E7,
    "pub_resource_type": "BOOK",
    "BOOK_BOOK_CASCADID_1": ["81043"],
    "pub_a_order": -1.04001035000104E7,
    "pub_a_order2": 5.000104E9,
    "pub_star_num": 0,
    "prod_sale_price": 0,
    "BOOK_KEYWORDS": "",
    "BOOK_DEPART": "",
    "pub_resource_id": 375422,
    "pub_status": 1,
    "BOOK_PRESS_NAME": "北京",
    "pub_comment_num": 0,
    "BOOK_PROOF_EDITOR": "",
    "pub_click_num": 0,
    "BOOK_BOOK_CAT": "基础教育分社",
    "pub_POSTER": ["/portal/file/image/124RSLE7LXLY50600682.jpg"],
    "BOOK_EDITOR": "",
    "pub_sales_num": 1,
    "prod_code": "188800000140",
    "BOOK_COVER_DESIGNER": "",
    "pub_downloads_num": 0,
    "BOOK_SERIES_NAME": "",
    "pub_read_num": 3,
    "BOOK_MAJOR_EDITOR": "",
    "pub_priview_txtlpdf": ["/portal/file/priviewTxtlpdf/120WPWXS5WI2P5513414.pdf"],
    "BOOK_BOOK_CATID": 81043,
    "prod_product_type": "94",
    "BOOK_COPY_DESIGNER": "",
    "pub_site_id": 5,
    "BOOK_PRINT_COMPANY": "",
    "pub_like_num": 0,
    "BOOK_LANGUAGE": "中文",
    "BOOK_BOOK_CASCADID": ["81043"],
    "BOOK_PRINT_VERSION": 12,
    "pub_lastmodified": 1521081358000,
    "prod_name": "测试pdf试读文件",
    "BOOK_CLC_CAT": "",
    "pub_resource_name": "测试pdf试读文件",
    "BOOK_BSN": "",
    "pub_col_id": 104,
    "_version_": 1594993567720275968,
    "pub_content_type": "94",
    "pub_picSmall": "/portal/file/covjpg/118M2S2VEUWFN5458173_s.jpg",
    "BOOK_SYS_CREATED": 1511002479957,
    "pub_picMiddle": "/portal/file/covjpg/118M2S2VEUWFN5458173_m.jpg",
    "BOOK_BOOK_VERSION": 122,
    "prod_resource_type": "BOOK"
  }, {
    "pub_is_eb": 1,
    "BOOK_EDITOR": "安炳淑",
    "BOOK_SYS_TOPIC": "经济基础知识（初级）同步训练与全真模拟测试",
    "pub_created": 1521081512000,
    "BOOK_ISBN": "978-7-5129-0359-3",
    "pub_sales_num": 0,
    "prod_code": "188800000181",
    "pub_col_name": "重磅推荐",
    "pub_downloads_num": 0,
    "prod_id": 181,
    "BOOK_SERIES_NAME": "2012年版全国经济专业技术资格考试辅导用书",
    "pub_read_num": 3,
    "BOOK_EB_PRICE": 64,
    "BOOK_PUBDATE": 1339718400000,
    "BOOK_FORMAT": "全开",
    "prod_member_price": 64,
    "BOOK_BOOK_CATID": 81047,
    "prod_product_type": "94",
    "id": "81",
    "pub_site_id": 5,
    "pub_like_num": 0,
    "BOOK_LANGUAGE": "中文",
    "BOOK_BOOK_CASCADID": ["81047"],
    "pub_a_order1": -1.0400103E7,
    "pub_resource_type": "BOOK",
    "BOOK_BOOK_CASCADID_1": ["81047"],
    "pub_a_order": -1.04001038000104E7,
    "pub_a_order2": 8.000104E9,
    "BOOK_PRINT_VERSION": 2,
    "pub_star_num": 0,
    "prod_sale_price": 64,
    "pub_lastmodified": 1521081512000,
    "pub_resource_id": 371230,
    "pub_status": 1,
    "prod_name": "经济基础知识（初级）同步训练与全真模拟测试",
    "BOOK_PRESS_NAME": "中国人事出版社",
    "pub_resource_name": "经济基础知识（初级）同步训练与全真模拟测试",
    "pub_comment_num": 0,
    "BOOK_PRICE": 98,
    "pub_col_id": 104,
    "_version_": 1594993568159629312,
    "pub_content_type": "94",
    "pub_click_num": 0,
    "BOOK_SYS_CREATED": 1501846091297,
    "BOOK_BOOK_VERSION": 1,
    "prod_resource_type": "BOOK",
    "BOOK_BOOK_CAT": "教辅"
  }, {
    "BOOK_SYS_AUTHORS": "加西亚·马尔克斯",
    "BOOK_TEXT_TYPE": "13234",
    "pub_is_eb": 1,
    "pub_picBig": "/portal/file/covjpg/117UUY3ADZ4TA1332033.jpg",
    "pub_priview_epub": ["/portal/file/priviewEpub/121MR77JGYQ0Z1433412.epub"],
    "BOOK_SYS_TOPIC": "活着是为了讲述",
    "pub_created": 1521081138000,
    "BOOK_ISBN": "9787544281584",
    "pub_col_name": "重磅推荐",
    "prod_id": 109,
    "BOOK_COPYRIGHT_MSG": "",
    "BOOK_SYNOPSIS": "",
    "BOOK_REMARK": "★ 《百年孤独》作者马尔克斯唯一自传\r\n★ 首版首次赠限量别册（含地图、人名索引、加博书单、作品年表）+ 雕刻时光咖啡券\r\n★ “我年轻过，落魄过，幸福过，我对生活一往情深。”——加西亚·马尔克斯\r\n★ 生活不是我们活过的日子，而是我们记住的日子，我们为了讲述而在记忆中重现的日子。\r\n★ 正是回忆中的这些细节、生命中的这些人将马尔克斯带到了《百年孤独》的门口； 能够解开《百年孤独》密码的，只有《活着为了讲述》；马尔克斯小说中的人物都能在本书中找到原型。\r\n★ 一个在贫穷困苦中行走的年轻人，如何始终保有幽默和快乐，最后夺取人生的桂冠？\r\n★ 诺奖得主、纯文学畅销奇迹创造者马尔克斯的成长故事：充满魔幻色彩的真实人生。\r\n=======================\r\n他是举世闻名的文学大师，《百年孤独》《霍乱时期的爱情》等传世巨著的作者，被誉为“20世纪的文学标杆”。\r\n同时，他也是一个爱讲故事的孩子。\r\n他想说的是：爱真的存在，幸福真的可能，死神也会败在幸福手下。\r\n他是加西亚·马尔克斯。",
    "BOOK_FORMAT": "全开",
    "BOOK_CLC_CASCADID": ["33839"],
    "prod_member_price": 12,
    "BOOK_FITMENT": "飞飞",
    "BOOK_TEXT_NUM": 1233,
    "BOOK_DEPARTID": 168399,
    "BOOK_PRINTED_SHEETS": 1212,
    "id": "9",
    "pub_a_order1": -1.0400103E7,
    "pub_resource_type": "BOOK",
    "BOOK_CLC_CASCADID_1": ["33839"],
    "BOOK_BOOK_CASCADID_1": ["88340"],
    "pub_a_order": -1.0400103200010398E7,
    "pub_a_order2": 2.00010398E9,
    "pub_star_num": 0,
    "prod_sale_price": 12,
    "BOOK_DEPART_CASCADID": "168399",
    "BOOK_KEYWORDS": "活着为了什么",
    "BOOK_DEPART": "上海辞书出版社",
    "pub_resource_id": 375575,
    "pub_status": 1,
    "BOOK_PRESS_NAME": "南海出版公司",
    "pub_comment_num": 0,
    "BOOK_PROOF_EDITOR": "飞飞",
    "pub_click_num": 0,
    "BOOK_WORDS": 13232434,
    "BOOK_BOOK_CAT": "计算机",
    "BOOK_EDITOR": "飞飞",
    "pub_sales_num": 0,
    "prod_code": "188800000109",
    "BOOK_COVER_DESIGNER": "飞飞",
    "pub_downloads_num": 0,
    "BOOK_SERIES_NAME": "飞飞",
    "pub_read_num": 2,
    "BOOK_MAJOR_EDITOR": "飞飞",
    "BOOK_EB_PRICE": 12,
    "BOOK_PUBDATE": 1513814400000,
    "pub_priview_txtlpdf": ["/portal/file/priviewTxtlpdf/1200YSJ5RBEOG1426155.pdf"],
    "BOOK_BOOK_CATID": 88340,
    "prod_product_type": "94",
    "BOOK_COPY_DESIGNER": "飞飞",
    "pub_site_id": 5,
    "BOOK_PRINT_COMPANY": "飞飞",
    "pub_like_num": 0,
    "BOOK_LANGUAGE": "法文",
    "BOOK_BOOK_CASCADID": ["88340"],
    "BOOK_PRINT_VERSION": 123,
    "pub_lastmodified": 1521081138000,
    "BOOK_CLC_CATID": 33839,
    "prod_name": "活着是为了讲述",
    "BOOK_CLC_CAT": "文化、科学、教育、体育",
    "pub_resource_name": "活着是为了讲述",
    "BOOK_BSN": "飞飞",
    "BOOK_PRICE": 55,
    "pub_col_id": 104,
    "_version_": 1594972051229114368,
    "pub_content_type": "94",
    "BOOK_DEPART_CASCADID_1": ["168399"],
    "pub_picSmall": "/portal/file/covjpg/117UUY3ADZ4TA1332033_s.jpg",
    "BOOK_SYS_CREATED": 1512126805087,
    "pub_picMiddle": "/portal/file/covjpg/117UUY3ADZ4TA1332033_m.jpg",
    "BOOK_BOOK_VERSION": 123,
    "prod_resource_type": "BOOK"
  }],
  "pageNo": 1,
  "success": true,
  "totalPages": 5,
  "first": 1
}
