{
  "last": 4,
  "prePage": 1,
  "nextPage": 2,
  "start": 0,
  "pageSize": 4,
  "description": "查询成功！",
  "hasNext": true,
  "totalCount": 5,
  "hasPre": false,
  "result": [{
    "VIDEO-MEDIA_DESCRIPTION": "",
    "VIDEO-MEDIA_PRICE": 1,
    "pub_is_eb": 1,
    "VIDEO-MEDIA_RECORDER": "",
    "pub_created": 1525433128000,
    "pub_col_name": "视频",
    "prod_id": 2444,
    "id": "5120",
    "VIDEO-MEDIA_ISRC_ISBN": "",
    "pub_a_order1": -1.0900192E7,
    "pub_resource_type": "VIDEO-MEDIA",
    "pub_a_order": -1.09001925000261E7,
    "pub_a_order2": 5.000261E9,
    "VIDEO-MEDIA_SYS_CREATED": 1525433102773,
    "VIDEO-MEDIA_LANGUAGE": "中文",
    "pub_star_num": 0,
    "prod_sale_price": 1,
    "VIDEO-MEDIA_KEYWORDS": "",
    "pub_resource_id": 402462,
    "pub_status": 1,
    "pub_comment_num": 0,
    "pub_click_num": 0,
    "VIDEO-MEDIA_CARRIER_TYPE": "CD",
    "pub_sales_num": 0,
    "prod_code": "188800002444",
    "pub_downloads_num": 0,
    "pub_read_num": 0,
    "VIDEO-MEDIA_MEDIA_NAME": "",
    "VIDEO-MEDIA_COVERID": 0,
    "prod_product_type": "136",
    "VIDEO-MEDIA_EDITOR": "",
    "pub_site_id": 1,
    "pub_like_num": 0,
    "VIDEO-MEDIA_TEXT_EDITOR": "",
    "VIDEO-MEDIA_SUPPORT_PRODUCT": "",
    "pub_lastmodified": 1525433128000,
    "VIDEO-MEDIA_SYS_TOPIC": "10801",
    "VIDEO-MEDIA_REMARK": "",
    "prod_name": "10801",
    "VIDEO-MEDIA_MATERIAL_NO": "",
    "pub_resource_name": "10801",
    "VIDEO-MEDIA_FORMAT": "mp4",
    "VIDEO-MEDIA_MEDIA_CAT": "",
    "pub_col_id": 261,
    "_version_": 1599557620187791360,
    "pub_content_type": "136",
    "VIDEO-MEDIA_RESOURCEID": 232612,
    "prod_resource_type": "VIDEO-MEDIA",
    "VIDEO-MEDIA_DEPART": ""
  }, {
    "VIDEO-MEDIA_DESCRIPTION": "",
    "VIDEO-MEDIA_CARRIER_TYPE": "CD",
    "pub_is_eb": 1,
    "VIDEO-MEDIA_RECORDER": "",
    "pub_created": 1525432958000,
    "pub_sales_num": 0,
    "prod_code": "188800002442",
    "pub_col_name": "视频",
    "pub_downloads_num": 0,
    "prod_id": 2442,
    "pub_read_num": 0,
    "VIDEO-MEDIA_MEDIA_NAME": "",
    "VIDEO-MEDIA_COVERID": 0,
    "prod_product_type": "136",
    "VIDEO-MEDIA_EDITOR": "",
    "id": "5118",
    "pub_site_id": 1,
    "VIDEO-MEDIA_ISRC_ISBN": "",
    "pub_like_num": 0,
    "VIDEO-MEDIA_TEXT_EDITOR": "",
    "pub_a_order1": -1.0900191E7,
    "pub_resource_type": "VIDEO-MEDIA",
    "pub_a_order": -1.0900191700026099E7,
    "pub_a_order2": 7.00026099E9,
    "VIDEO-MEDIA_SYS_CREATED": 1525399973523,
    "VIDEO-MEDIA_SUPPORT_PRODUCT": "",
    "VIDEO-MEDIA_LANGUAGE": "中文",
    "pub_star_num": 0,
    "prod_sale_price": 0,
    "pub_lastmodified": 1525432679000,
    "VIDEO-MEDIA_SYS_TOPIC": "烟花3",
    "pub_resource_id": 400811,
    "pub_status": 1,
    "VIDEO-MEDIA_REMARK": "",
    "prod_name": "烟花3",
    "VIDEO-MEDIA_MATERIAL_NO": "",
    "pub_resource_name": "烟花3",
    "pub_comment_num": 0,
    "VIDEO-MEDIA_FORMAT": "mp4",
    "VIDEO-MEDIA_MEDIA_CAT": "",
    "pub_col_id": 261,
    "_version_": 1599557619859587072,
    "pub_content_type": "136",
    "pub_click_num": 0,
    "VIDEO-MEDIA_RESOURCEID": 232495,
    "prod_resource_type": "VIDEO-MEDIA",
    "VIDEO-MEDIA_DEPART": ""
  }, {
    "VIDEO-MEDIA_DESCRIPTION": "",
    "VIDEO-MEDIA_CARRIER_TYPE": "CD",
    "pub_is_eb": 1,
    "VIDEO-MEDIA_RECORDER": "",
    "pub_created": 1525432958000,
    "pub_sales_num": 0,
    "prod_code": "188800002443",
    "pub_col_name": "视频",
    "pub_downloads_num": 0,
    "prod_id": 2443,
    "pub_read_num": 0,
    "VIDEO-MEDIA_MEDIA_NAME": "",
    "VIDEO-MEDIA_COVERID": 0,
    "prod_product_type": "136",
    "VIDEO-MEDIA_EDITOR": "",
    "id": "5119",
    "pub_site_id": 1,
    "VIDEO-MEDIA_ISRC_ISBN": "",
    "pub_like_num": 0,
    "VIDEO-MEDIA_TEXT_EDITOR": "",
    "pub_a_order1": -1.0900191E7,
    "pub_resource_type": "VIDEO-MEDIA",
    "pub_a_order": -1.0900191700026099E7,
    "pub_a_order2": 7.00026099E9,
    "VIDEO-MEDIA_SYS_CREATED": 1525328940347,
    "VIDEO-MEDIA_SUPPORT_PRODUCT": "",
    "VIDEO-MEDIA_LANGUAGE": "中文",
    "pub_star_num": 0,
    "prod_sale_price": 0,
    "pub_lastmodified": 1525432679000,
    "VIDEO-MEDIA_SYS_TOPIC": "街头",
    "pub_resource_id": 400468,
    "pub_status": 1,
    "VIDEO-MEDIA_REMARK": "",
    "prod_name": "街头",
    "VIDEO-MEDIA_MATERIAL_NO": "",
    "pub_resource_name": "街头",
    "pub_comment_num": 0,
    "VIDEO-MEDIA_FORMAT": "mp4",
    "VIDEO-MEDIA_MEDIA_CAT": "",
    "pub_col_id": 261,
    "_version_": 1599557620024213504,
    "pub_content_type": "136",
    "pub_click_num": 0,
    "VIDEO-MEDIA_RESOURCEID": 232276,
    "prod_resource_type": "VIDEO-MEDIA",
    "VIDEO-MEDIA_DEPART": ""
  }, {
    "VIDEO-MEDIA_DESCRIPTION": "",
    "VIDEO-MEDIA_CARRIER_TYPE": "CD",
    "pub_is_eb": 1,
    "VIDEO-MEDIA_RECORDER": "",
    "pub_created": 1525432958000,
    "pub_sales_num": 0,
    "prod_code": "188800002441",
    "pub_col_name": "视频",
    "pub_downloads_num": 0,
    "prod_id": 2441,
    "pub_read_num": 0,
    "VIDEO-MEDIA_MEDIA_NAME": "",
    "VIDEO-MEDIA_COVERID": 0,
    "prod_product_type": "136",
    "VIDEO-MEDIA_EDITOR": "",
    "id": "5117",
    "pub_site_id": 1,
    "VIDEO-MEDIA_ISRC_ISBN": "",
    "pub_like_num": 0,
    "VIDEO-MEDIA_TEXT_EDITOR": "",
    "pub_a_order1": -1.090019E7,
    "pub_resource_type": "VIDEO-MEDIA",
    "pub_a_order": -1.0900190700026099E7,
    "pub_a_order2": 7.00026099E9,
    "VIDEO-MEDIA_SYS_CREATED": 1525431978170,
    "VIDEO-MEDIA_SUPPORT_PRODUCT": "",
    "VIDEO-MEDIA_LANGUAGE": "中文",
    "pub_star_num": 0,
    "prod_sale_price": 0,
    "pub_lastmodified": 1525432062000,
    "VIDEO-MEDIA_SYS_TOPIC": "cs",
    "VIDEO-MEDIA_KEYWORDS": "",
    "pub_resource_id": 402461,
    "pub_status": 1,
    "VIDEO-MEDIA_REMARK": "",
    "prod_name": "cs",
    "VIDEO-MEDIA_MATERIAL_NO": "",
    "pub_resource_name": "cs",
    "pub_comment_num": 0,
    "VIDEO-MEDIA_FORMAT": "mp4",
    "VIDEO-MEDIA_MEDIA_CAT": "",
    "pub_col_id": 261,
    "_version_": 1599557619705446400,
    "pub_content_type": "136",
    "pub_click_num": 0,
    "VIDEO-MEDIA_RESOURCEID": 232611,
    "prod_resource_type": "VIDEO-MEDIA",
    "VIDEO-MEDIA_DEPART": ""
  }],
  "pageNo": 1,
  "success": true,
  "totalPages": 2,
  "first": 1
}
