{
  "last": 20,
  "prePage": 1,
  "nextPage": 3,
  "start": 10,
  "pageSize": 10,
  "description": "查询成功！",
  "hasNext": true,
  "totalCount": 39,
  "hasPre": true,
  "result": [
    {
      "BOOK_SYS_AUTHORS": "",
      "BOOK_WEIGHT": "2000",
      "BOOK_TEXT_TYPE": "",
      "pub_is_eb": 1,
      "BOOK_SYS_TOPIC": "重量2000g",
      "pub_created": 1536652676000,
      "BOOK_ISBN": "9787519016425",
      "pub_col_name": "重磅推荐",
      "prod_id": 6978,
      "BOOK_COPYRIGHT_MSG": "",
      "BOOK_SYNOPSIS": "",
      "BOOK_REMARK": "",
      "BOOK_FORMAT": "全开",
      "prod_member_price": 0,
      "BOOK_FITMENT": "",
      "id": "272",
      "pub_a_order1": -1.2200155e7,
      "pub_resource_type": "BOOK",
      "pub_a_order": -1.22001557000292e7,
      "pub_a_order2": 7.000292e9,
      "pub_star_num": 0,
      "prod_sale_price": 0,
      "BOOK_KEYWORDS": "",
      "BOOK_DEPART": "",
      "pub_resource_id": 474001,
      "pub_status": 1,
      "BOOK_PRESS_NAME": "方正",
      "pub_comment_num": 0,
      "BOOK_PROOF_EDITOR": "",
      "pub_click_num": 0,
      "BOOK_BOOK_CAT": "",
      "BOOK_IS_COMMENT": "是",
      "BOOK_INVENTORY": "600",
      "BOOK_EDITOR": "",
      "pub_sales_num": 0,
      "prod_code": "188800006978",
      "BOOK_COVER_DESIGNER": "",
      "pub_downloads_num": 0,
      "BOOK_SERIES_NAME": "",
      "pub_read_num": 66,
      "BOOK_MAJOR_EDITOR": "",
      "pub_col_all": ["292"],
      "prod_product_type": "94",
      "BOOK_COPY_DESIGNER": "",
      "BOOK_SALE_URL": "",
      "pub_sale_status": 1,
      "pub_site_id": 42,
      "BOOK_PRINT_COMPANY": "",
      "pub_like_num": 0,
      "BOOK_LANGUAGE": "中文",
      "BOOK_PAGE_NUM_BOOK": "",
      "BOOK_PRINT_VERSION": 1,
      "pub_lastmodified": 1536652676000,
      "prod_name": "重量2000g",
      "BOOK_CLC_CAT": "",
      "pub_resource_name": "重量2000g",
      "BOOK_BSN": "",
      "BOOK_PRICE": 0.03,
      "pub_col_id": 292,
      "_version_": 1612512807005192192,
      "pub_content_type": "94",
      "BOOK_SYS_CREATED": 1535706335340,
      "BOOK_BOOK_VERSION": 1,
      "prod_resource_type": "BOOK"
    },
    {
      "BOOK_SYS_AUTHORS": "夏洛特·勃朗特",
      "BOOK_WEIGHT": "",
      "BOOK_TEXT_TYPE": "",
      "pub_is_eb": 1,
      "BOOK_SYS_TOPIC": "萤火简爱",
      "pub_created": 1536652675000,
      "BOOK_ISBN": "978-7-5524-12134-53",
      "pub_col_name": "重磅推荐",
      "prod_id": 7023,
      "BOOK_COPYRIGHT_MSG": "",
      "BOOK_SYNOPSIS": "《简·爱》（Jane Eyre）是英国女作家夏洛蒂·勃朗特创作的长篇小说，是一部具有自传色彩的作品。 作品讲述一位从小变成孤儿的英国女子在各种磨难中不断追求自由与尊严，坚持自我，最终获得幸福的故事。小说引人入胜地展示了男女主人公曲折起伏的爱情经历，歌颂了摆脱一切旧习俗和偏见，成功塑造了一个敢于反抗，敢于争取自由和平等地位的妇女形象。",
      "BOOK_REMARK": "",
      "BOOK_FORMAT": "全开",
      "prod_member_price": 0,
      "BOOK_FITMENT": "",
      "id": "263",
      "pub_a_order1": -1.2200155e7,
      "pub_resource_type": "BOOK",
      "BOOK_BOOK_CASCADID_1": ["81047"],
      "pub_a_order": -1.22001557000292e7,
      "pub_a_order2": 7.000292e9,
      "pub_star_num": 0,
      "prod_sale_price": 0,
      "BOOK_KEYWORDS": "",
      "BOOK_DEPART": "",
      "pub_resource_id": 487996,
      "pub_status": 1,
      "BOOK_PRESS_NAME": "中国金融出版社",
      "pub_comment_num": 0,
      "BOOK_PROOF_EDITOR": "",
      "pub_click_num": 0,
      "BOOK_BOOK_CAT": "教辅",
      "BOOK_IS_COMMENT": "是",
      "BOOK_INVENTORY": "",
      "BOOK_EDITOR": "",
      "pub_sales_num": 0,
      "prod_code": "188800007023",
      "BOOK_COVER_DESIGNER": "",
      "pub_downloads_num": 0,
      "BOOK_SERIES_NAME": "",
      "pub_read_num": 0,
      "BOOK_MAJOR_EDITOR": "",
      "pub_col_all": ["292"],
      "BOOK_BOOK_CATID": 81047,
      "prod_product_type": "94",
      "BOOK_COPY_DESIGNER": "",
      "BOOK_SALE_URL": "",
      "pub_sale_status": 1,
      "pub_site_id": 42,
      "BOOK_PRINT_COMPANY": "",
      "pub_like_num": 0,
      "BOOK_LANGUAGE": "中文",
      "BOOK_BOOK_CASCADID": ["81047"],
      "BOOK_PAGE_NUM_BOOK": "",
      "BOOK_PRINT_VERSION": 1,
      "pub_lastmodified": 1536652675000,
      "prod_name": "萤火简爱",
      "BOOK_CLC_CAT": "",
      "pub_resource_name": "萤火简爱",
      "BOOK_BSN": "",
      "pub_col_id": 292,
      "_version_": 1612512803231367168,
      "pub_content_type": "94",
      "BOOK_SYS_CREATED": 1536652494953,
      "BOOK_BOOK_VERSION": 1,
      "prod_resource_type": "BOOK"
    },
    {
      "BOOK_SYS_AUTHORS": "",
      "BOOK_WEIGHT": "999",
      "BOOK_TEXT_TYPE": "",
      "pub_is_eb": 1,
      "BOOK_SYS_TOPIC": "091102",
      "pub_created": 1536652675000,
      "BOOK_ISBN": "9787519016425",
      "pub_col_name": "重磅推荐",
      "prod_id": 7024,
      "BOOK_COPYRIGHT_MSG": "",
      "BOOK_SYNOPSIS": "",
      "BOOK_REMARK": "",
      "BOOK_FORMAT": "全开",
      "prod_member_price": 0,
      "BOOK_FITMENT": "",
      "id": "264",
      "pub_a_order1": -1.2200155e7,
      "pub_resource_type": "BOOK",
      "pub_a_order": -1.22001557000292e7,
      "pub_a_order2": 7.000292e9,
      "pub_star_num": 0,
      "prod_sale_price": 0,
      "BOOK_KEYWORDS": "",
      "BOOK_DEPART": "",
      "pub_resource_id": 487995,
      "pub_status": 1,
      "BOOK_PRESS_NAME": "方正出版社",
      "pub_comment_num": 0,
      "BOOK_PROOF_EDITOR": "",
      "pub_click_num": 0,
      "BOOK_BOOK_CAT": "",
      "BOOK_IS_COMMENT": "是",
      "BOOK_INVENTORY": "",
      "BOOK_EDITOR": "",
      "pub_sales_num": 0,
      "prod_code": "188800007024",
      "BOOK_COVER_DESIGNER": "",
      "pub_downloads_num": 0,
      "BOOK_SERIES_NAME": "",
      "pub_read_num": 0,
      "BOOK_MAJOR_EDITOR": "",
      "pub_col_all": ["292"],
      "prod_product_type": "94",
      "BOOK_COPY_DESIGNER": "",
      "BOOK_SALE_URL": "",
      "pub_sale_status": 1,
      "pub_site_id": 42,
      "BOOK_PRINT_COMPANY": "",
      "pub_like_num": 0,
      "BOOK_LANGUAGE": "中文",
      "BOOK_PAGE_NUM_BOOK": "",
      "BOOK_PRINT_VERSION": 2,
      "pub_lastmodified": 1536652675000,
      "prod_name": "091102",
      "BOOK_CLC_CAT": "",
      "pub_resource_name": "091102",
      "BOOK_BSN": "",
      "BOOK_PRICE": 13.98,
      "pub_col_id": 292,
      "_version_": 1612512803527065600,
      "pub_content_type": "94",
      "BOOK_SYS_CREATED": 1536647749197,
      "BOOK_BOOK_VERSION": 1,
      "prod_resource_type": "BOOK"
    },
    {
      "BOOK_SYS_AUTHORS": "",
      "BOOK_WEIGHT": "499",
      "BOOK_TEXT_TYPE": "",
      "pub_is_eb": 1,
      "BOOK_SYS_TOPIC": "091101",
      "pub_created": 1536652675000,
      "BOOK_ISBN": "9787519016425",
      "pub_col_name": "重磅推荐",
      "prod_id": 7025,
      "BOOK_COPYRIGHT_MSG": "",
      "BOOK_SYNOPSIS": "",
      "BOOK_REMARK": "",
      "BOOK_FORMAT": "全开",
      "prod_member_price": 0,
      "BOOK_FITMENT": "",
      "id": "265",
      "pub_a_order1": -1.2200155e7,
      "pub_resource_type": "BOOK",
      "BOOK_BOOK_CASCADID_1": ["81048"],
      "pub_a_order": -1.22001557000292e7,
      "pub_a_order2": 7.000292e9,
      "pub_star_num": 0,
      "prod_sale_price": 0,
      "BOOK_KEYWORDS": "",
      "BOOK_DEPART": "",
      "pub_resource_id": 487994,
      "pub_status": 1,
      "BOOK_PRESS_NAME": "方正出版社",
      "pub_comment_num": 0,
      "BOOK_PROOF_EDITOR": "",
      "pub_click_num": 0,
      "BOOK_BOOK_CAT": "学术著作",
      "BOOK_IS_COMMENT": "是",
      "BOOK_INVENTORY": "",
      "BOOK_EDITOR": "",
      "pub_sales_num": 0,
      "prod_code": "188800007025",
      "BOOK_COVER_DESIGNER": "",
      "pub_downloads_num": 0,
      "BOOK_SERIES_NAME": "",
      "pub_read_num": 0,
      "BOOK_MAJOR_EDITOR": "",
      "pub_col_all": ["292"],
      "BOOK_BOOK_CATID": 81048,
      "prod_product_type": "94",
      "BOOK_COPY_DESIGNER": "",
      "BOOK_SALE_URL": "",
      "pub_sale_status": 1,
      "pub_site_id": 42,
      "BOOK_PRINT_COMPANY": "",
      "pub_like_num": 0,
      "BOOK_LANGUAGE": "中文",
      "BOOK_BOOK_CASCADID": ["81048"],
      "BOOK_PAGE_NUM_BOOK": "",
      "BOOK_PRINT_VERSION": 2,
      "pub_lastmodified": 1536652675000,
      "prod_name": "091101",
      "BOOK_CLC_CAT": "",
      "pub_resource_name": "091101",
      "BOOK_BSN": "",
      "BOOK_PRICE": 12,
      "pub_col_id": 292,
      "_version_": 1612512803828006912,
      "pub_content_type": "94",
      "BOOK_SYS_CREATED": 1536647721497,
      "BOOK_BOOK_VERSION": 1,
      "prod_resource_type": "BOOK"
    },
    {
      "BOOK_SYS_AUTHORS": "邓林",
      "BOOK_WEIGHT": "500",
      "BOOK_TEXT_TYPE": "宣纸",
      "pub_is_eb": 1,
      "pub_picBig": "../../../file/covjpg/2428HTNX52G880333194.jpg",
      "BOOK_SYS_TOPIC": "三轮测试一本书",
      "pub_created": 1536652675000,
      "BOOK_ISBN": "9787519016425",
      "pub_col_name": "重磅推荐",
      "prod_id": 6997,
      "BOOK_COPYRIGHT_MSG": "方正所有",
      "BOOK_SYNOPSIS": "我的测试专用书",
      "BOOK_REMARK": "各种信息齐全",
      "BOOK_FORMAT": "4开",
      "BOOK_CLC_CASCADID": ["29635"],
      "prod_member_price": 5.99,
      "BOOK_FITMENT": "邓林",
      "BOOK_PRINTED_SHEETS": 17,
      "id": "266",
      "pub_a_order1": -1.2200155e7,
      "pub_resource_type": "BOOK",
      "BOOK_CLC_CASCADID_1": ["29635"],
      "BOOK_BOOK_CASCADID_1": ["81048"],
      "pub_a_order": -1.22001557000292e7,
      "pub_a_order2": 7.000292e9,
      "pub_star_num": 0,
      "prod_sale_price": 5.99,
      "BOOK_DEPART_CASCADID": ["168400"],
      "BOOK_KEYWORDS": "测试",
      "BOOK_DEPART": "教育社",
      "pub_resource_id": 484007,
      "pub_status": 1,
      "BOOK_PRESS_NAME": "方正出版社",
      "pub_comment_num": 0,
      "BOOK_PROOF_EDITOR": "邓林",
      "pub_click_num": 0,
      "BOOK_WORDS": 100000,
      "BOOK_BOOK_CAT": "学术著作",
      "BOOK_IS_COMMENT": "否",
      "BOOK_INVENTORY": "1000",
      "BOOK_EDITOR": "邓林",
      "pub_sales_num": 11,
      "prod_code": "188800006997",
      "BOOK_COVER_DESIGNER": "邓林",
      "pub_downloads_num": 0,
      "BOOK_SERIES_NAME": "测试系列丛书",
      "pub_read_num": 862,
      "BOOK_MAJOR_EDITOR": "邓林",
      "BOOK_EB_PRICE": 5.99,
      "pub_col_all": ["292"],
      "BOOK_PUBDATE": 1536249600000,
      "pub_priview_txtlpdf": [
        "../../../file/priviewTxtlpdf/2431V5YRPSKDT0359335.pdf"
      ],
      "BOOK_BOOK_CATID": 81048,
      "prod_product_type": "94",
      "BOOK_COPY_DESIGNER": "邓林",
      "BOOK_SALE_URL": "http:www.baidu.com",
      "pub_sale_status": 1,
      "pub_site_id": 42,
      "BOOK_PRINT_COMPANY": "方正印捷",
      "pub_like_num": 0,
      "BOOK_LANGUAGE": "英文",
      "BOOK_BOOK_CASCADID": ["81048"],
      "BOOK_PAGE_NUM_BOOK": "324",
      "BOOK_PRINT_VERSION": 2,
      "pub_lastmodified": 1536652675000,
      "BOOK_CLC_CATID": 29635,
      "prod_name": "三轮测试一本书",
      "BOOK_CLC_CAT": "马克思主义、列宁主义、毛泽东思想、邓小平理论",
      "pub_resource_name": "三轮测试一本书",
      "BOOK_BSN": "123456",
      "BOOK_PRICE": 16.8,
      "pub_col_id": 292,
      "_version_": 1612512804187668480,
      "pub_content_type": "94",
      "BOOK_DEPART_CASCADID_1": ["168400"],
      "pub_picSmall": "../../../file/covjpg/33CB453E-09E9-9492-2C96-359EDBBB0C12.jpg_s.jpg",
      "BOOK_SYS_CREATED": 1536300205803,
      "pub_picMiddle": "../../../file/covjpg/33CB453E-09E9-9492-2C96-359EDBBB0C12.jpg_m.jpg",
      "BOOK_BOOK_VERSION": 1,
      "prod_resource_type": "BOOK"
    },
    {
      "BOOK_SYS_AUTHORS": "",
      "BOOK_WEIGHT": "501",
      "BOOK_TEXT_TYPE": "",
      "pub_is_eb": 1,
      "BOOK_SYS_TOPIC": "重量501g",
      "pub_created": 1536652675000,
      "BOOK_ISBN": "9787519016425",
      "pub_col_name": "重磅推荐",
      "prod_id": 6973,
      "BOOK_COPYRIGHT_MSG": "",
      "BOOK_SYNOPSIS": "",
      "BOOK_REMARK": "",
      "BOOK_FORMAT": "全开",
      "prod_member_price": 0,
      "BOOK_FITMENT": "",
      "id": "267",
      "pub_a_order1": -1.2200155e7,
      "pub_resource_type": "BOOK",
      "pub_a_order": -1.22001557000292e7,
      "pub_a_order2": 7.000292e9,
      "pub_star_num": 0,
      "prod_sale_price": 0,
      "BOOK_KEYWORDS": "",
      "BOOK_DEPART": "",
      "pub_resource_id": 477018,
      "pub_status": 1,
      "BOOK_PRESS_NAME": "方正",
      "pub_comment_num": 0,
      "BOOK_PROOF_EDITOR": "",
      "pub_click_num": 0,
      "BOOK_BOOK_CAT": "",
      "BOOK_IS_COMMENT": "是",
      "BOOK_INVENTORY": "",
      "BOOK_EDITOR": "",
      "pub_sales_num": 0,
      "prod_code": "188800006973",
      "BOOK_COVER_DESIGNER": "",
      "pub_downloads_num": 0,
      "BOOK_SERIES_NAME": "",
      "pub_read_num": 26,
      "BOOK_MAJOR_EDITOR": "",
      "pub_col_all": ["292"],
      "prod_product_type": "94",
      "BOOK_COPY_DESIGNER": "",
      "BOOK_SALE_URL": "",
      "pub_sale_status": 1,
      "pub_site_id": 42,
      "BOOK_PRINT_COMPANY": "",
      "pub_like_num": 0,
      "BOOK_LANGUAGE": "中文",
      "BOOK_PAGE_NUM_BOOK": "",
      "BOOK_PRINT_VERSION": 1,
      "pub_lastmodified": 1536652675000,
      "prod_name": "重量501g",
      "BOOK_CLC_CAT": "",
      "pub_resource_name": "重量501g",
      "BOOK_BSN": "",
      "BOOK_PRICE": 0.01,
      "pub_col_id": 292,
      "_version_": 1612512804500144128,
      "pub_content_type": "94",
      "BOOK_SYS_CREATED": 1535973773980,
      "BOOK_BOOK_VERSION": 1,
      "prod_resource_type": "BOOK"
    },
    {
      "BOOK_MATERIAL_SALE_URL": "",
      "BOOK_MATERIAL_SERIES_NAME": "",
      "pub_is_eb": 1,
      "pub_created": 1536648368000,
      "BOOK_MATERIAL_MAJOR_EDITOR": "",
      "BOOK_MATERIAL_DEPART": "",
      "BOOK_MATERIAL_BOOK_CAT": "基础教育分社",
      "BOOK_MATERIAL_FORMAT": "全开",
      "pub_col_name": "重磅推荐",
      "prod_id": 7013,
      "BOOK_MATERIAL_SYS_CREATED": 1536551866777,
      "BOOK_MATERIAL_FITMENT": "",
      "BOOK_MATERIAL_BOOK_CASCADID_1": ["81043"],
      "id": "262",
      "BOOK_MATERIAL_WEIGHT": "",
      "BOOK_MATERIAL_COVER_DESIGNER": "",
      "BOOK_MATERIAL_TEXT_TYPE": "",
      "BOOK_MATERIAL_KEYWORDS": "",
      "pub_a_order1": -1.2200144e7,
      "pub_resource_type": "BOOK_MATERIAL",
      "BOOK_MATERIAL_BOOK_CASCADID": "81043",
      "pub_a_order": -1.22001446000301e7,
      "pub_a_order2": 6.000301e9,
      "BOOK_MATERIAL_PRESS_NAME": "中国金融出版社",
      "BOOK_MATERIAL_ISBN": "978-7-5524-122234-533",
      "pub_star_num": 0,
      "prod_sale_price": 0,
      "BOOK_MATERIAL_PRINT_VERSION": 10,
      "pub_resource_id": 486025,
      "pub_status": 1,
      "BOOK_MATERIAL_BSN": "",
      "pub_comment_num": 0,
      "BOOK_MATERIAL_CLC_CAT": "",
      "pub_click_num": 0,
      "BOOK_MATERIAL_PAGE_NUM_BOOK": "",
      "BOOK_MATERIAL_BOOK_CATID": 81043,
      "BOOK_MATERIAL_SYNOPSIS": "好书快听的摘要很长啊啊啊.好书快听很好看,又好听,厉害得不得了,你晓得吗哈哈哈哈哈",
      "BOOK_MATERIAL_RIGHTS": "影响",
      "pub_sales_num": 0,
      "prod_code": "188800007013",
      "pub_downloads_num": 0,
      "BOOK_MATERIAL_EDITOR": "",
      "pub_read_num": 5,
      "pub_col_all": ["301"],
      "BOOK_MATERIAL_IS_COMMENT": "是",
      "prod_product_type": "154",
      "pub_sale_status": 1,
      "pub_site_id": 42,
      "BOOK_MATERIAL_BOOK_VERSION": 10,
      "pub_like_num": 0,
      "BOOK_MATERIAL_REMARK": "",
      "BOOK_MATERIAL_PROOF_EDITOR": "",
      "pub_lastmodified": 1536648368000,
      "BOOK_MATERIAL_LANGUAGE": "中文",
      "BOOK_MATERIAL_SYS_TOPIC": "青春修炼手册",
      "BOOK_MATERIAL_COPY_DESIGNER": "",
      "prod_name": "青春修炼手册",
      "pub_resource_name": "青春修炼手册",
      "pub_col_id": 301,
      "_version_": 1612512802938814464,
      "pub_content_type": "154",
      "BOOK_MATERIAL_SYS_AUTHORS": "",
      "BOOK_MATERIAL_PRINT_COMPANY": "",
      "prod_resource_type": "BOOK_MATERIAL",
      "BOOK_MATERIAL_COPYRIGHT_MSG": ""
    },
    {
      "BOOK_MATERIAL_SALE_URL": "",
      "BOOK_MATERIAL_SERIES_NAME": "",
      "pub_is_eb": 1,
      "pub_picBig": "../../../file/2017/3/cover/124F02KGICA1Q5208376.jpg",
      "pub_created": 1536551910000,
      "BOOK_MATERIAL_MAJOR_EDITOR": "",
      "BOOK_MATERIAL_DEPART": "",
      "BOOK_MATERIAL_BOOK_CAT": "",
      "BOOK_MATERIAL_FORMAT": "全开",
      "pub_col_name": "新书上架",
      "prod_id": 7008,
      "BOOK_MATERIAL_SYS_CREATED": 1536551519883,
      "BOOK_MATERIAL_FITMENT": "",
      "id": "220",
      "BOOK_MATERIAL_WEIGHT": "",
      "BOOK_MATERIAL_COVER_DESIGNER": "",
      "BOOK_MATERIAL_TEXT_TYPE": "",
      "BOOK_MATERIAL_KEYWORDS": "",
      "pub_a_order1": -1.2190115e7,
      "pub_resource_type": "BOOK_MATERIAL",
      "pub_a_order": -1.21901158000303e7,
      "pub_a_order2": 8.000303e9,
      "BOOK_MATERIAL_PRESS_NAME": "中国金融出版社",
      "BOOK_MATERIAL_ISBN": "978-7-5524-12134-53",
      "pub_star_num": 0,
      "prod_sale_price": 0,
      "BOOK_MATERIAL_PRINT_VERSION": 77,
      "pub_resource_id": 486017,
      "pub_status": 1,
      "BOOK_MATERIAL_BSN": "",
      "pub_comment_num": 0,
      "BOOK_MATERIAL_CLC_CAT": "",
      "pub_click_num": 0,
      "BOOK_MATERIAL_PAGE_NUM_BOOK": "",
      "BOOK_MATERIAL_SYNOPSIS": "是灵异事件啊,灵异啊,平行世界啊,多个宇宙啊",
      "BOOK_MATERIAL_RIGHTS": "影响",
      "pub_sales_num": 0,
      "prod_code": "188800007008",
      "pub_downloads_num": 0,
      "BOOK_MATERIAL_EDITOR": "",
      "pub_read_num": 0,
      "pub_col_all": ["303"],
      "BOOK_MATERIAL_IS_COMMENT": "是",
      "prod_product_type": "154",
      "pub_sale_status": 1,
      "pub_site_id": 42,
      "BOOK_MATERIAL_BOOK_VERSION": 7,
      "pub_like_num": 0,
      "BOOK_MATERIAL_REMARK": "",
      "BOOK_MATERIAL_PROOF_EDITOR": "",
      "pub_lastmodified": 1536551910000,
      "BOOK_MATERIAL_LANGUAGE": "中文",
      "BOOK_MATERIAL_SYS_TOPIC": "四月一日灵异事件薄",
      "BOOK_MATERIAL_COPY_DESIGNER": "",
      "prod_name": "四月一日灵异事件薄",
      "pub_resource_name": "四月一日灵异事件薄",
      "pub_col_id": 303,
      "_version_": 1612512800260751360,
      "pub_content_type": "154",
      "BOOK_MATERIAL_SYS_AUTHORS": "(日)高桥留美子",
      "BOOK_MATERIAL_PRINT_COMPANY": "",
      "pub_picSmall": "../../../file/2017/3/cover/C3CB18B2-9DC3-4336-58D7-F1326F458758.jpg_s.jpg",
      "pub_picMiddle": "../../../file/2017/3/cover/C3CB18B2-9DC3-4336-58D7-F1326F458758.jpg_m.jpg",
      "prod_resource_type": "BOOK_MATERIAL",
      "BOOK_MATERIAL_COPYRIGHT_MSG": ""
    },
    {
      "BOOK_MATERIAL_SALE_URL": "",
      "BOOK_MATERIAL_SERIES_NAME": "",
      "pub_is_eb": 1,
      "pub_picBig": "../../../file/2017/3/cover/122KEXCJMUSG44917486.jpg",
      "pub_created": 1536551910000,
      "BOOK_MATERIAL_MAJOR_EDITOR": "",
      "BOOK_MATERIAL_DEPART": "",
      "BOOK_MATERIAL_BOOK_CAT": "",
      "BOOK_MATERIAL_FORMAT": "全开",
      "pub_col_name": "新书上架",
      "prod_id": 7010,
      "BOOK_MATERIAL_SYS_CREATED": 1536551345220,
      "BOOK_MATERIAL_FITMENT": "",
      "id": "221",
      "BOOK_MATERIAL_WEIGHT": "",
      "BOOK_MATERIAL_COVER_DESIGNER": "",
      "BOOK_MATERIAL_TEXT_TYPE": "",
      "BOOK_MATERIAL_KEYWORDS": "",
      "pub_a_order1": -1.2190115e7,
      "pub_resource_type": "BOOK_MATERIAL",
      "pub_a_order": -1.21901158000303e7,
      "pub_a_order2": 8.000303e9,
      "BOOK_MATERIAL_PRESS_NAME": "中国金融出版社",
      "BOOK_MATERIAL_ISBN": "978-7-5524-122334-5337",
      "pub_star_num": 0,
      "prod_sale_price": 0,
      "BOOK_MATERIAL_PRINT_VERSION": 5,
      "pub_resource_id": 486013,
      "pub_status": 1,
      "BOOK_MATERIAL_BSN": "",
      "pub_comment_num": 0,
      "BOOK_MATERIAL_CLC_CAT": "",
      "pub_click_num": 0,
      "BOOK_MATERIAL_PAGE_NUM_BOOK": "",
      "BOOK_MATERIAL_SYNOPSIS": "治愈温馨的校园少年日常,高中生活很丰富,日常的生活可见其贵,真的是很治愈哦,看一遍绝对不够,再看第二遍,相信会有不一样的感觉,不妨试试",
      "BOOK_MATERIAL_RIGHTS": "影响",
      "pub_sales_num": 0,
      "prod_code": "188800007010",
      "pub_downloads_num": 0,
      "BOOK_MATERIAL_EDITOR": "",
      "pub_read_num": 0,
      "pub_col_all": ["303"],
      "BOOK_MATERIAL_IS_COMMENT": "是",
      "prod_product_type": "154",
      "pub_sale_status": 1,
      "pub_site_id": 42,
      "BOOK_MATERIAL_BOOK_VERSION": 5,
      "pub_like_num": 0,
      "BOOK_MATERIAL_REMARK": "",
      "BOOK_MATERIAL_PROOF_EDITOR": "",
      "pub_lastmodified": 1536551910000,
      "BOOK_MATERIAL_LANGUAGE": "中文",
      "BOOK_MATERIAL_SYS_TOPIC": "少年同盟",
      "BOOK_MATERIAL_COPY_DESIGNER": "",
      "prod_name": "少年同盟",
      "pub_resource_name": "少年同盟",
      "pub_col_id": 303,
      "_version_": 1612512800647675904,
      "pub_content_type": "154",
      "BOOK_MATERIAL_SYS_AUTHORS": "",
      "BOOK_MATERIAL_PRINT_COMPANY": "",
      "pub_picSmall": "../../../file/2017/3/cover/C9BD4FF3-E0C7-01AC-0401-9011322B8F98.jpg_s.jpg",
      "pub_picMiddle": "../../../file/2017/3/cover/C9BD4FF3-E0C7-01AC-0401-9011322B8F98.jpg_m.jpg",
      "prod_resource_type": "BOOK_MATERIAL",
      "BOOK_MATERIAL_COPYRIGHT_MSG": ""
    },
    {
      "BOOK_MATERIAL_SALE_URL": "",
      "BOOK_MATERIAL_SERIES_NAME": "adsa",
      "pub_is_eb": 1,
      "pub_created": 1536551910000,
      "BOOK_MATERIAL_MAJOR_EDITOR": "wew",
      "BOOK_MATERIAL_DEPART": "",
      "BOOK_MATERIAL_BOOK_CAT": "基础教育分社",
      "BOOK_MATERIAL_FORMAT": "全开",
      "pub_col_name": "新书上架",
      "prod_id": 7012,
      "BOOK_MATERIAL_SYS_CREATED": 1536229228403,
      "BOOK_MATERIAL_PRICE": 6,
      "BOOK_MATERIAL_FITMENT": "",
      "BOOK_MATERIAL_BOOK_CASCADID_1": ["81043"],
      "id": "222",
      "BOOK_MATERIAL_WEIGHT": "34",
      "BOOK_MATERIAL_COVER_DESIGNER": "wew",
      "BOOK_MATERIAL_TEXT_TYPE": "45",
      "BOOK_MATERIAL_KEYWORDS": "232",
      "pub_a_order1": -1.2190115e7,
      "pub_resource_type": "BOOK_MATERIAL",
      "BOOK_MATERIAL_BOOK_CASCADID": "81043",
      "pub_a_order": -1.21901158000303e7,
      "pub_a_order2": 8.000303e9,
      "BOOK_MATERIAL_PRESS_NAME": "adsasa",
      "BOOK_MATERIAL_ISBN": "978-7-5524-12134-533",
      "pub_star_num": 0,
      "prod_sale_price": 6,
      "BOOK_MATERIAL_PRINT_VERSION": 3,
      "pub_resource_id": 481012,
      "pub_status": 1,
      "BOOK_MATERIAL_BSN": "dasds",
      "pub_comment_num": 0,
      "BOOK_MATERIAL_CLC_CAT": "",
      "pub_click_num": 0,
      "BOOK_MATERIAL_PAGE_NUM_BOOK": "45",
      "BOOK_MATERIAL_BOOK_CATID": 81043,
      "BOOK_MATERIAL_PUBDATE": 1536595200000,
      "BOOK_MATERIAL_SYNOPSIS": "",
      "BOOK_MATERIAL_RIGHTS": "影响",
      "pub_sales_num": 0,
      "prod_code": "188800007012",
      "pub_downloads_num": 0,
      "BOOK_MATERIAL_EDITOR": "dds",
      "pub_read_num": 0,
      "pub_col_all": ["303"],
      "BOOK_MATERIAL_IS_COMMENT": "是",
      "prod_product_type": "154",
      "pub_sale_status": 1,
      "pub_site_id": 42,
      "BOOK_MATERIAL_BOOK_VERSION": 44,
      "pub_like_num": 0,
      "BOOK_MATERIAL_REMARK": "dsadadad很好很好",
      "BOOK_MATERIAL_PRINTED_SHEETS": 45,
      "BOOK_MATERIAL_EB_PRICE": 3,
      "BOOK_MATERIAL_PROOF_EDITOR": "des",
      "pub_lastmodified": 1536551910000,
      "BOOK_MATERIAL_LANGUAGE": "中文",
      "BOOK_MATERIAL_SYS_TOPIC": "flower2333333333333",
      "BOOK_MATERIAL_COPY_DESIGNER": "sd",
      "prod_name": "flower2333333333333",
      "pub_resource_name": "flower2333333333333",
      "pub_col_id": 303,
      "_version_": 1612512800946520064,
      "pub_content_type": "154",
      "BOOK_MATERIAL_SYS_AUTHORS": "张某某",
      "BOOK_MATERIAL_PRINT_COMPANY": "",
      "prod_resource_type": "BOOK_MATERIAL",
      "BOOK_MATERIAL_COPYRIGHT_MSG": ""
    }
  ],
  "pageNo": 2,
  "success": true,
  "totalPages": 4,
  "first": 11
}
