{
  "last": 6,
  "prePage": 1,
  "nextPage": 2,
  "start": 0,
  "pageSize": 6,
  "description": "查询成功！",
  "hasNext": true,
  "totalCount": 10,
  "hasPre": false,
  "result": [
    {
      "pub_is_eb": 0,
      "pub_created": 1537947558000,
      "MATERIAL-PIC_FORMAT": "jpg",
      "pub_sales_num": 0,
      "pub_col_name": "精选图片",
      "pub_downloads_num": 0,
      "pub_read_num": 4,
      "MATERIAL-PIC_PIC_CASCADID_1": ["29253"],
      "pub_col_all": ["1344"],
      "MATERIAL-PIC_COVERID": 0,
      "id": "7582",
      "pub_sale_status": 1,
      "pub_site_id": 70,
      "MATERIAL-PIC_SYS_TOPIC": "少林3",
      "MATERIAL-PIC_RESOURCEID": 251134,
      "MATERIAL-PIC_WIDTH": 319,
      "pub_like_num": 0,
      "pub_a_order1": -1.2350153e7,
      "pub_resource_type": "MATERIAL-PIC",
      "MATERIAL-PIC_PIC_CATID": 29253,
      "pub_a_order": -1.23501539001344e7,
      "pub_a_order2": 9.001344e9,
      "pub_star_num": 0,
      "pub_lastmodified": 1537947558000,
      "pub_resource_id": 394342,
      "MATERIAL-PIC_FILE_SIZE": 1048576,
      "pub_status": 1,
      "MATERIAL-PIC_DPI_Y": 200,
      "pub_resource_name": "少林3",
      "pub_comment_num": 0,
      "MATERIAL-PIC_PIC_CAT": "建筑",
      "MATERIAL-PIC_PIC_CASCADID": ["29253"],
      "pub_col_id": 1344,
      "_version_": 1612787629671055360,
      "pub_content_type": "170",
      "MATERIAL-PIC_DPI_X": 200,
      "MATERIAL-PIC_HEIGHT": 240,
      "pub_click_num": 0,
      "MATERIAL-PIC_SYS_CREATED": 1530178450467
    },
    {
      "pub_is_eb": 0,
      "pub_created": 1537947558000,
      "MATERIAL-PIC_FORMAT": "jpg",
      "pub_sales_num": 0,
      "pub_col_name": "精选图片",
      "pub_downloads_num": 0,
      "pub_read_num": 4,
      "MATERIAL-PIC_PIC_CASCADID_1": ["29253"],
      "pub_col_all": ["1344"],
      "MATERIAL-PIC_KEYWORDS": "",
      "MATERIAL-PIC_STYLE": "",
      "MATERIAL-PIC_COVERID": 0,
      "id": "7583",
      "pub_sale_status": 1,
      "pub_site_id": 70,
      "MATERIAL-PIC_SYS_TOPIC": "少林2",
      "MATERIAL-PIC_REMARK": "",
      "MATERIAL-PIC_RESOURCEID": 251127,
      "MATERIAL-PIC_WIDTH": 1200,
      "pub_like_num": 0,
      "MATERIAL-PIC_PIC_NAME": "",
      "pub_a_order1": -1.2350153e7,
      "pub_resource_type": "MATERIAL-PIC",
      "MATERIAL-PIC_ACT_SPOT": "",
      "MATERIAL-PIC_PIC_CATID": 29253,
      "pub_a_order": -1.23501539001344e7,
      "pub_a_order2": 9.001344e9,
      "MATERIAL-PIC_DESCRIPTION": "",
      "pub_star_num": 0,
      "pub_lastmodified": 1537947558000,
      "MATERIAL-PIC_DEPART": "",
      "pub_resource_id": 394341,
      "MATERIAL-PIC_FILE_SIZE": 1048576,
      "pub_status": 1,
      "MATERIAL-PIC_TYPESETTING_FILE": "",
      "MATERIAL-PIC_SYS_AUTHORS": "",
      "MATERIAL-PIC_DPI_Y": 72,
      "pub_resource_name": "少林2",
      "pub_comment_num": 0,
      "MATERIAL-PIC_PIC_CAT": "建筑",
      "MATERIAL-PIC_PIC_CASCADID": ["29253"],
      "pub_col_id": 1344,
      "_version_": 1612787629974093824,
      "pub_content_type": "170",
      "MATERIAL-PIC_DPI_X": 72,
      "MATERIAL-PIC_HEIGHT": 825,
      "pub_click_num": 0,
      "MATERIAL-PIC_SYS_CREATED": 1530178268993
    },
    {
      "pub_is_eb": 0,
      "pub_picBig": "../../../file/pictures/332S8WYV2OWFZ3607565.jpg",
      "pub_created": 1537947557000,
      "MATERIAL-PIC_FORMAT": "jpg",
      "pub_col_name": "精选图片",
      "id": "7575",
      "MATERIAL-PIC_REMARK": "",
      "MATERIAL-PIC_RESOURCEID": 431946,
      "MATERIAL-PIC_PIC_NAME": "",
      "pub_a_order1": -1.2350153e7,
      "pub_resource_type": "MATERIAL-PIC",
      "MATERIAL-PIC_ACT_SPOT": "",
      "pub_a_order": -1.23501539001344e7,
      "pub_a_order2": 9.001344e9,
      "MATERIAL-PIC_DESCRIPTION": "",
      "pub_star_num": 0,
      "MATERIAL-PIC_DEPART": "",
      "pub_resource_id": 462496,
      "MATERIAL-PIC_FILE_SIZE": 44063,
      "pub_status": 1,
      "MATERIAL-PIC_TYPESETTING_FILE": "",
      "MATERIAL-PIC_DPI_Y": 72,
      "pub_comment_num": 0,
      "MATERIAL-PIC_PIC_CASCADID": ["13614"],
      "MATERIAL-PIC_DPI_X": 72,
      "MATERIAL-PIC_HEIGHT": 333,
      "pub_click_num": 0,
      "pub_sales_num": 0,
      "pub_downloads_num": 0,
      "pub_read_num": 13,
      "MATERIAL-PIC_PIC_CASCADID_1": ["13614"],
      "pub_col_all": ["1344"],
      "MATERIAL-PIC_KEYWORDS": "",
      "MATERIAL-PIC_STYLE": "",
      "MATERIAL-PIC_COVERID": 0,
      "pub_sale_status": 1,
      "pub_site_id": 70,
      "MATERIAL-PIC_SYS_TOPIC": "金融",
      "MATERIAL-PIC_WIDTH": 500,
      "pub_like_num": 0,
      "MATERIAL-PIC_PIC_CATID": 13614,
      "pub_lastmodified": 1537947557000,
      "MATERIAL-PIC_SYS_AUTHORS": "",
      "pub_resource_name": "金融",
      "MATERIAL-PIC_PIC_CAT": "卡通",
      "pub_col_id": 1344,
      "_version_": 1612787625202024448,
      "pub_content_type": "170",
      "pub_picSmall": "../../../file/pictures/025DDF8F-4981-8FCD-5311-04173452D17C.jpg_s.jpg",
      "MATERIAL-PIC_SYS_CREATED": 1537245367847,
      "pub_picMiddle": "../../../file/pictures/025DDF8F-4981-8FCD-5311-04173452D17C.jpg_m.jpg"
    },
    {
      "pub_is_eb": 0,
      "pub_picBig": "../../../file/pictures/331LLFW014G0Q3607523.jpg",
      "pub_created": 1537947557000,
      "MATERIAL-PIC_FORMAT": "jpg",
      "pub_col_name": "精选图片",
      "id": "7576",
      "MATERIAL-PIC_REMARK": "",
      "MATERIAL-PIC_RESOURCEID": 431945,
      "MATERIAL-PIC_PIC_NAME": "",
      "pub_a_order1": -1.2350153e7,
      "pub_resource_type": "MATERIAL-PIC",
      "MATERIAL-PIC_ACT_SPOT": "",
      "pub_a_order": -1.23501539001344e7,
      "pub_a_order2": 9.001344e9,
      "MATERIAL-PIC_DESCRIPTION": "",
      "pub_star_num": 0,
      "MATERIAL-PIC_DEPART": "",
      "pub_resource_id": 462495,
      "MATERIAL-PIC_FILE_SIZE": 12595,
      "pub_status": 1,
      "MATERIAL-PIC_TYPESETTING_FILE": "",
      "MATERIAL-PIC_DPI_Y": 72,
      "pub_comment_num": 0,
      "MATERIAL-PIC_PIC_CASCADID": ["13614"],
      "MATERIAL-PIC_DPI_X": 72,
      "MATERIAL-PIC_HEIGHT": 375,
      "pub_click_num": 0,
      "pub_sales_num": 0,
      "pub_downloads_num": 0,
      "pub_read_num": 2,
      "MATERIAL-PIC_PIC_CASCADID_1": ["13614"],
      "pub_col_all": ["1344"],
      "MATERIAL-PIC_KEYWORDS": "",
      "MATERIAL-PIC_STYLE": "",
      "MATERIAL-PIC_COVERID": 0,
      "pub_sale_status": 1,
      "pub_site_id": 70,
      "MATERIAL-PIC_SYS_TOPIC": "财大师",
      "MATERIAL-PIC_WIDTH": 500,
      "pub_like_num": 0,
      "MATERIAL-PIC_PIC_CATID": 13614,
      "pub_lastmodified": 1537947557000,
      "MATERIAL-PIC_SYS_AUTHORS": "",
      "pub_resource_name": "财大师",
      "MATERIAL-PIC_PIC_CAT": "卡通",
      "pub_col_id": 1344,
      "_version_": 1612787626005233664,
      "pub_content_type": "170",
      "pub_picSmall": "../../../file/pictures/4BF9411B-9E8A-88B7-56FD-97D6705B65B2.jpg_s.jpg",
      "MATERIAL-PIC_SYS_CREATED": 1537245367707,
      "pub_picMiddle": "../../../file/pictures/4BF9411B-9E8A-88B7-56FD-97D6705B65B2.jpg_m.jpg"
    },
    {
      "pub_is_eb": 0,
      "pub_picBig": "../../../file/2018/09/18/318Y7QWULCDVE3212542.jpg",
      "pub_created": 1537947557000,
      "MATERIAL-PIC_FORMAT": "jpg",
      "pub_sales_num": 0,
      "pub_col_name": "精选图片",
      "pub_downloads_num": 0,
      "pub_read_num": 6,
      "pub_col_all": ["1344"],
      "MATERIAL-PIC_KEYWORDS": "",
      "MATERIAL-PIC_STYLE": "",
      "MATERIAL-PIC_COVERID": 0,
      "id": "7577",
      "pub_sale_status": 1,
      "pub_site_id": 70,
      "MATERIAL-PIC_SYS_TOPIC": "艺术",
      "MATERIAL-PIC_REMARK": "",
      "MATERIAL-PIC_RESOURCEID": 431934,
      "MATERIAL-PIC_WIDTH": 268,
      "pub_like_num": 0,
      "MATERIAL-PIC_PIC_NAME": "",
      "pub_a_order1": -1.2350153e7,
      "pub_resource_type": "MATERIAL-PIC",
      "MATERIAL-PIC_ACT_SPOT": "",
      "pub_a_order": -1.23501539001344e7,
      "pub_a_order2": 9.001344e9,
      "MATERIAL-PIC_DESCRIPTION": "",
      "pub_star_num": 0,
      "pub_lastmodified": 1537947557000,
      "MATERIAL-PIC_DEPART": "",
      "pub_resource_id": 462493,
      "MATERIAL-PIC_FILE_SIZE": 23530,
      "pub_status": 1,
      "MATERIAL-PIC_TYPESETTING_FILE": "",
      "MATERIAL-PIC_SYS_AUTHORS": "李阳",
      "MATERIAL-PIC_DPI_Y": 72,
      "pub_resource_name": "艺术",
      "pub_comment_num": 0,
      "MATERIAL-PIC_PIC_CAT": "",
      "pub_col_id": 1344,
      "_version_": 1612787627013963776,
      "pub_content_type": "170",
      "MATERIAL-PIC_DPI_X": 72,
      "MATERIAL-PIC_HEIGHT": 300,
      "pub_click_num": 0,
      "pub_picSmall": "../../../file/2018/09/18/8C5C9109-5F5D-96F8-8758-AA1570DC2F4A.jpg_s.jpg",
      "MATERIAL-PIC_SYS_CREATED": 1537245269290,
      "pub_picMiddle": "../../../file/2018/09/18/8C5C9109-5F5D-96F8-8758-AA1570DC2F4A.jpg_m.jpg"
    },
    {
      "pub_is_eb": 0,
      "pub_picBig": "../../../file/2018/09/18/228Q22TJBJCIP3303876.jpg",
      "pub_created": 1537948195000,
      "MATERIAL-PIC_FORMAT": "jpg",
      "pub_sales_num": 0,
      "pub_col_name": "精选图片",
      "pub_downloads_num": 0,
      "pub_read_num": 13,
      "pub_col_all": ["1344"],
      "MATERIAL-PIC_KEYWORDS": "",
      "MATERIAL-PIC_STYLE": "",
      "MATERIAL-PIC_COVERID": 0,
      "id": "7578",
      "pub_sale_status": 1,
      "pub_site_id": 70,
      "MATERIAL-PIC_SYS_TOPIC": "博天下",
      "MATERIAL-PIC_REMARK": "",
      "MATERIAL-PIC_RESOURCEID": 431828,
      "MATERIAL-PIC_WIDTH": 500,
      "pub_like_num": 0,
      "MATERIAL-PIC_PIC_NAME": "",
      "pub_a_order1": -1.2350153e7,
      "pub_resource_type": "MATERIAL-PIC",
      "MATERIAL-PIC_ACT_SPOT": "少林寺",
      "pub_a_order": -1.23501539001344e7,
      "pub_a_order2": 9.001344e9,
      "MATERIAL-PIC_DESCRIPTION": "",
      "pub_star_num": 0,
      "pub_lastmodified": 1537947557000,
      "MATERIAL-PIC_DEPART": "",
      "pub_resource_id": 462474,
      "MATERIAL-PIC_FILE_SIZE": 13094,
      "pub_status": 1,
      "MATERIAL-PIC_TYPESETTING_FILE": "",
      "MATERIAL-PIC_SYS_AUTHORS": "李阳",
      "MATERIAL-PIC_DPI_Y": 72,
      "pub_resource_name": "博天下",
      "pub_comment_num": 0,
      "MATERIAL-PIC_PIC_CAT": "",
      "pub_col_id": 1344,
      "_version_": 1612787628210388992,
      "pub_content_type": "170",
      "MATERIAL-PIC_DPI_X": 72,
      "MATERIAL-PIC_HEIGHT": 375,
      "pub_click_num": 0,
      "pub_picSmall": "../../../file/2018/09/18/76F67DDB-688F-0B4E-5544-D3382CF9CD6C.jpg_s.jpg",
      "MATERIAL-PIC_SYS_CREATED": 1537241607623,
      "pub_picMiddle": "../../../file/2018/09/18/76F67DDB-688F-0B4E-5544-D3382CF9CD6C.jpg_m.jpg"
    }
  ],
  "pageNo": 1,
  "success": true,
  "totalPages": 2,
  "first": 1
}
