{
  "last": 4,
  "prePage": 1,
  "nextPage": 2,
  "start": 0,
  "pageSize": 4,
  "description": "查询成功！",
  "hasNext": true,
  "totalCount": 91,
  "hasPre": false,
  "result": [
    {
      "BOOK_SYS_AUTHORS": "智享测试",
      "BOOK_TEXT_TYPE": "",
      "pub_is_eb": 1,
      "pub_picBig": "/data/124SRB5BJB67L3635684.jpg",
      "BOOK_SYS_TOPIC": "测试轮播图（邓林）",
      "pub_created": 1514276216000,
      "BOOK_ISBN": "122781738",
      "pub_col_name": "热销排行",
      "prod_id": 5087,
      "BOOK_SYNOPSIS": "",
      "BOOK_COPYRIGHT_MSG": "",
      "BOOK_REMARK": "",
      "BOOK_FORMAT": "全开",
      "prod_member_price": 2,
      "BOOK_FITMENT": "",
      "id": "635",
      "pub_a_order1": -9610161,
      "pub_resource_type": "BOOK",
      "BOOK_BOOK_CASCADID_1": [
        "81675"
      ],
      "pub_a_order": -9610161.6000131,
      "pub_a_order2": 6.000131E9,
      "pub_star_num": 0,
      "prod_sale_price": 2,
      "BOOK_KEYWORDS": "",
      "BOOK_DEPART": "",
      "pub_resource_id": 374890,
      "pub_status": 1,
      "BOOK_PRESS_NAME": "测试出版社",
      "pub_comment_num": 0,
      "BOOK_PROOF_EDITOR": "",
      "pub_click_num": 0,
      "BOOK_BOOK_CAT": "教育社",
      "pub_POSTER": [
        "/portal/file/image/123VQSTFTBADV3607557.jpg"
      ],
      "BOOK_EDITOR": "",
      "pub_sales_num": 0,
      "prod_code": "178800005147",
      "BOOK_COVER_DESIGNER": "",
      "pub_downloads_num": 0,
      "BOOK_SERIES_NAME": "",
      "pub_read_num": 25,
      "BOOK_MAJOR_EDITOR": "",
      "BOOK_EB_PRICE": 2,
      "BOOK_BOOK_CATID": 81675,
      "prod_product_type": "94",
      "BOOK_COPY_DESIGNER": "",
      "pub_site_id": 2,
      "BOOK_PRINT_COMPANY": "",
      "pub_like_num": 0,
      "BOOK_LANGUAGE": "中文",
      "BOOK_BOOK_CASCADID": [
        "81675"
      ],
      "BOOK_PRINT_VERSION": 1,
      "pub_lastmodified": 1514276180000,
      "prod_name": "测试轮播图（邓林）",
      "BOOK_CLC_CAT": "",
      "pub_resource_name": "测试轮播图（邓林）",
      "BOOK_BSN": "",
      "BOOK_PRICE": 5,
      "pub_col_id": 131,
      "_version_": 1587904707663233024,
      "pub_content_type": "94",
      "pub_picSmall": "/data/124SRB5BJB67L3635684_s.jpg",
      "BOOK_SYS_CREATED": 1509441144107,
      "pub_picMiddle": "/data/124SRB5BJB67L3635684_m.jpg",
      "BOOK_BOOK_VERSION": 1,
      "prod_resource_type": "BOOK"
    },
    {
      "BOOK_SYS_AUTHORS": "智享测试",
      "BOOK_TEXT_TYPE": "",
      "pub_is_eb": 1,
      "pub_picBig": "/data/112TCURXUWGP12235245.jpg",
      "BOOK_SYS_TOPIC": "茶花女（epub、pdf,1.99，邓林）",
      "pub_created": 1514276216000,
      "BOOK_ISBN": "978-7-5059-9394-5",
      "pub_col_name": "热销排行",
      "prod_id": 5085,
      "BOOK_SYNOPSIS": "",
      "BOOK_COPYRIGHT_MSG": "",
      "BOOK_REMARK": "",
      "BOOK_FORMAT": "全开",
      "prod_member_price": 1.99,
      "BOOK_FITMENT": "",
      "id": "633",
      "pub_a_order1": -9610161,
      "pub_resource_type": "BOOK",
      "BOOK_BOOK_CASCADID_1": [
        "88340"
      ],
      "pub_a_order": -9610161.6000131,
      "pub_a_order2": 6.000131E9,
      "BOOK_BOOK_CASCADID_2": [
        "88342"
      ],
      "pub_star_num": 0,
      "prod_sale_price": 1.99,
      "BOOK_KEYWORDS": "",
      "BOOK_DEPART": "",
      "pub_resource_id": 374904,
      "pub_status": 1,
      "BOOK_PRESS_NAME": "方正出版社",
      "pub_comment_num": 0,
      "BOOK_PROOF_EDITOR": "",
      "pub_click_num": 0,
      "BOOK_BOOK_CAT": "计算机~JAVA",
      "BOOK_EDITOR": "",
      "pub_sales_num": 0,
      "prod_code": "178800005145",
      "BOOK_COVER_DESIGNER": "",
      "pub_downloads_num": 0,
      "BOOK_SERIES_NAME": "",
      "pub_read_num": 24,
      "BOOK_MAJOR_EDITOR": "",
      "BOOK_EB_PRICE": 1.99,
      "BOOK_BOOK_CATID": 88342,
      "prod_product_type": "94",
      "BOOK_COPY_DESIGNER": "",
      "pub_site_id": 2,
      "BOOK_PRINT_COMPANY": "",
      "pub_like_num": 0,
      "BOOK_LANGUAGE": "中文",
      "BOOK_BOOK_CASCADID": [
        "88340_88342"
      ],
      "BOOK_PRINT_VERSION": 1,
      "pub_lastmodified": 1514276180000,
      "prod_name": "茶花女（epub、pdf,1.99，邓林）",
      "BOOK_CLC_CAT": "",
      "pub_resource_name": "茶花女（epub、pdf,1.99，邓林）",
      "BOOK_BSN": "",
      "BOOK_PRICE": 5.99,
      "pub_col_id": 131,
      "_version_": 1587904703541280768,
      "pub_content_type": "94",
      "pub_picSmall": "/data/112TCURXUWGP12235245_s.jpg",
      "BOOK_SYS_CREATED": 1509443468610,
      "pub_picMiddle": "/data/112TCURXUWGP12235245_m.jpg",
      "BOOK_BOOK_VERSION": 1,
      "prod_resource_type": "BOOK"
    },
    {
      "BOOK_SYS_AUTHORS": "",
      "BOOK_TEXT_TYPE": "",
      "pub_is_eb": 1,
      "pub_picBig": "/data/108PNCF37US1V1926773.jpg",
      "BOOK_SYS_TOPIC": "复活（epub、pdf,0，邓林）",
      "pub_created": 1514276216000,
      "BOOK_ISBN": "1743524214",
      "pub_col_name": "热销排行",
      "prod_id": 5088,
      "BOOK_SYNOPSIS": "",
      "BOOK_COPYRIGHT_MSG": "",
      "BOOK_REMARK": "",
      "BOOK_FORMAT": "全开",
      "prod_member_price": 0,
      "BOOK_FITMENT": "",
      "id": "636",
      "pub_a_order1": -9610161,
      "pub_resource_type": "BOOK",
      "BOOK_BOOK_CASCADID_1": [
        "81044"
      ],
      "pub_a_order": -9610161.6000131,
      "pub_a_order2": 6.000131E9,
      "pub_star_num": 0,
      "prod_sale_price": 0,
      "BOOK_KEYWORDS": "",
      "BOOK_DEPART": "",
      "pub_resource_id": 374859,
      "pub_status": 1,
      "BOOK_PRESS_NAME": "文联出版社",
      "pub_comment_num": 0,
      "BOOK_PROOF_EDITOR": "",
      "pub_click_num": 0,
      "BOOK_BOOK_CAT": "高等教育",
      "BOOK_EDITOR": "",
      "pub_sales_num": 0,
      "prod_code": "178800005148",
      "BOOK_COVER_DESIGNER": "",
      "pub_downloads_num": 0,
      "BOOK_SERIES_NAME": "",
      "pub_read_num": 23,
      "BOOK_MAJOR_EDITOR": "",
      "BOOK_EB_PRICE": 0,
      "BOOK_BOOK_CATID": 81044,
      "prod_product_type": "94",
      "BOOK_COPY_DESIGNER": "",
      "pub_site_id": 2,
      "BOOK_PRINT_COMPANY": "",
      "pub_like_num": 0,
      "BOOK_LANGUAGE": "中文",
      "BOOK_BOOK_CASCADID": [
        "81044"
      ],
      "BOOK_PRINT_VERSION": 1,
      "pub_lastmodified": 1514276180000,
      "prod_name": "复活（epub、pdf,0，邓林）",
      "BOOK_CLC_CAT": "",
      "pub_resource_name": "复活（epub、pdf,0，邓林）",
      "BOOK_BSN": "",
      "BOOK_PRICE": 1,
      "pub_col_id": 131,
      "_version_": 1587904703114510336,
      "pub_content_type": "94",
      "pub_picSmall": "/data/108PNCF37US1V1926773_s.jpg",
      "BOOK_SYS_CREATED": 1509424829393,
      "pub_picMiddle": "/data/108PNCF37US1V1926773_m.jpg",
      "BOOK_BOOK_VERSION": 1,
      "prod_resource_type": "BOOK"
    },
    {
      "BOOK_SYS_AUTHORS": "智享测试",
      "BOOK_TEXT_TYPE": "",
      "pub_is_eb": 1,
      "pub_picBig": "/data/126WJYXDZB5PC3725064.jpg",
      "BOOK_SYS_TOPIC": "测试广告图（邓林）",
      "pub_created": 1514276216000,
      "BOOK_ISBN": "122781738",
      "pub_col_name": "热销排行",
      "prod_id": 5086,
      "BOOK_SYNOPSIS": "",
      "BOOK_COPYRIGHT_MSG": "",
      "BOOK_REMARK": "",
      "BOOK_FORMAT": "全开",
      "prod_member_price": 0.2,
      "BOOK_FITMENT": "",
      "id": "634",
      "pub_a_order1": -9610161,
      "pub_resource_type": "BOOK",
      "BOOK_BOOK_CASCADID_1": [
        "81720"
      ],
      "pub_a_order": -9610161.6000131,
      "pub_a_order2": 6.000131E9,
      "pub_star_num": 0,
      "prod_sale_price": 0.2,
      "BOOK_KEYWORDS": "",
      "BOOK_DEPART": "",
      "pub_resource_id": 374892,
      "pub_status": 1,
      "BOOK_PRESS_NAME": "金融出版社",
      "pub_comment_num": 0,
      "BOOK_PROOF_EDITOR": "",
      "pub_click_num": 0,
      "BOOK_BOOK_CAT": "人文社科",
      "pub_POSTER": [
        "/portal/file/image/125DKQXVWSCLF3713136.jpg"
      ],
      "BOOK_EDITOR": "",
      "pub_sales_num": 0,
      "prod_code": "178800005146",
      "BOOK_COVER_DESIGNER": "",
      "pub_downloads_num": 0,
      "BOOK_SERIES_NAME": "",
      "pub_read_num": 23,
      "BOOK_MAJOR_EDITOR": "",
      "BOOK_EB_PRICE": 0.2,
      "BOOK_BOOK_CATID": 81720,
      "prod_product_type": "94",
      "BOOK_COPY_DESIGNER": "",
      "pub_site_id": 2,
      "BOOK_PRINT_COMPANY": "",
      "pub_like_num": 0,
      "BOOK_LANGUAGE": "中文",
      "BOOK_BOOK_CASCADID": [
        "81720"
      ],
      "BOOK_PRINT_VERSION": 1,
      "pub_lastmodified": 1514276180000,
      "prod_name": "测试广告图（邓林）",
      "BOOK_CLC_CAT": "",
      "pub_resource_name": "测试广告图（邓林）",
      "BOOK_BSN": "",
      "BOOK_PRICE": 0.1,
      "pub_col_id": 131,
      "_version_": 1587904703314788352,
      "pub_content_type": "94",
      "pub_picSmall": "/data/126WJYXDZB5PC3725064_s.jpg",
      "BOOK_SYS_CREATED": 1509441284443,
      "pub_picMiddle": "/data/126WJYXDZB5PC3725064_m.jpg",
      "BOOK_BOOK_VERSION": 1,
      "prod_resource_type": "BOOK"
    }
  ],
  "pageNo": 1,
  "success": true,
  "totalPages": 23,
  "first": 1
}