{
  "last": 10,
  "prePage": 1,
  "nextPage": 2,
  "start": 0,
  "pageSize": 10,
  "description": "查询成功！",
  "hasNext": true,
  "totalCount": 12,
  "hasPre": false,
  "result": [{
    "BOOK_SYS_AUTHORS": "美]Zed A. Shaw",
    "BOOK_TEXT_TYPE": "胶版纸",
    "pub_is_eb": 1,
    "pub_picBig": "http://172.19.57.153/portal/file/covjpg/155IGJ8PEWL0J0509864.jpg",
    "BOOK_SYS_TOPIC": "笨办法学python（中文第三版）",
    "pub_created": 1521443239000,
    "BOOK_ISBN": "9787115350541",
    "pub_col_name": "热销排行",
    "prod_id": 104,
    "BOOK_COPYRIGHT_MSG": "",
    "BOOK_SYNOPSIS": "Zed Shaw完善了这个堪称世上*好的Python学习系统。只要跟着学习，你就会和迄今为止数十万Zed教过的初学者一样获得成功。在这本书中，你将通过完成52个精心设计的习题来学会Python。阅读这些习题，把习题的代码精确地写出来（禁止复制和粘贴！），修正你的错误，观察程序的运行。在这个过程中，你将了解软件是如何工作的，好的程序看起来是什么样子，怎样阅读、编写、思考代码，以及如何用专业程序员的技巧来找出并修正错误。*重要的是，你将学到下面这些编写优秀的Python软件必需的初始技能。这本书会让你的每一分钟投入都有回报。Python是世界上*强大、*受欢迎的编程语言之一，很快你就会成为一名Python程序员。你还可以看Zed的视频！随书附赠的DVD中包含5个多小时激情挥洒的教学内容：一部完整的Python视频教程！ ",
    "BOOK_REMARK": "",
    "BOOK_FORMAT": "16开",
    "BOOK_CLC_CASCADID": ["80711"],
    "prod_member_price": 10.62,
    "BOOK_FITMENT": "平装-胶订",
    "BOOK_DEPARTID": 168399,
    "id": "554",
    "pub_a_order1": -1.10450141E8,
    "pub_resource_type": "BOOK",
    "BOOK_CLC_CASCADID_1": ["80711"],
    "BOOK_BOOK_CASCADID_1": ["88340"],
    "pub_a_order": -1.104501419000131E8,
    "pub_a_order2": 9.000131005E9,
    "pub_star_num": 0,
    "prod_sale_price": 17.7,
    "BOOK_DEPART_CASCADID": "168399",
    "BOOK_KEYWORDS": "python",
    "BOOK_DEPART": "上海辞书出版社",
    "pub_resource_id": 380606,
    "pub_status": 1,
    "BOOK_PRESS_NAME": "人民邮电出版社",
    "pub_comment_num": 0,
    "BOOK_PROOF_EDITOR": "",
    "pub_click_num": 0,
    "BOOK_BOOK_CAT": "计算机",
    "pub_POSTER": ["../../../file/image/380X7MCU0NI1Q3040381.jpg"],
    "BOOK_EDITOR": "",
    "pub_sales_num": 0,
    "prod_code": "188800000104",
    "BOOK_COVER_DESIGNER": "",
    "pub_downloads_num": 0,
    "BOOK_SERIES_NAME": "",
    "pub_read_num": 0,
    "BOOK_MAJOR_EDITOR": "",
    "BOOK_EB_PRICE": 17.7,
    "BOOK_PUBDATE": 1417276800000,
    "BOOK_BOOK_CATID": 88340,
    "prod_product_type": "94",
    "BOOK_COPY_DESIGNER": "",
    "pub_site_id": 2,
    "BOOK_PRINT_COMPANY": "",
    "pub_like_num": 0,
    "BOOK_LANGUAGE": "中文",
    "BOOK_BOOK_CASCADID": ["88340"],
    "BOOK_PRINT_VERSION": 12,
    "pub_lastmodified": 1521443229000,
    "BOOK_CLC_CATID": 80711,
    "prod_name": "笨办法学python（中文第三版）",
    "BOOK_CLC_CAT": "综合性图书",
    "pub_resource_name": "笨办法学python（中文第三版）",
    "BOOK_BSN": "",
    "BOOK_PRICE": 38.7,
    "pub_col_id": 131,
    "_version_": 1600644598535815168,
    "pub_content_type": "94",
    "BOOK_DEPART_CASCADID_1": ["168399"],
    "pub_picSmall": "../../../file/covjpg/3783JJSRGGHE23038957_s.jpg",
    "BOOK_SYS_CREATED": 1515036559547,
    "pub_picMiddle": "../../../file/covjpg/3783JJSRGGHE23038957_m.jpg",
    "BOOK_BOOK_VERSION": 1,
    "prod_resource_type": "BOOK"
  }, {
    "BOOK_SYS_AUTHORS": "作者威廉· 萨默赛特·毛姆",
    "BOOK_TEXT_TYPE": "1212",
    "pub_is_eb": 1,
    "pub_picBig": "http://172.19.57.153/portal/file/covjpg/155IGJ8PEWL0J0509864.jpg",
    "BOOK_SYS_TOPIC": "月亮和六便士",
    "pub_created": 1521783726000,
    "BOOK_ISBN": "173213234",
    "pub_col_name": "热销排行",
    "prod_id": 112,
    "BOOK_COPYRIGHT_MSG": "威廉· 萨默赛特·毛姆",
    "BOOK_SYNOPSIS": "威廉· 萨默赛特·毛姆",
    "BOOK_REMARK": "威廉· 萨默赛特·毛姆",
    "BOOK_FORMAT": "全开",
    "BOOK_CLC_CASCADID": ["29635"],
    "prod_member_price": 0,
    "BOOK_FITMENT": "威廉· 萨默赛特·毛姆",
    "BOOK_TEXT_NUM": 1212,
    "BOOK_PRINTED_SHEETS": 1212,
    "id": "1478",
    "pub_a_order1": -1.0480134E7,
    "pub_resource_type": "BOOK",
    "BOOK_CLC_CASCADID_1": ["29635"],
    "BOOK_BOOK_CASCADID_1": ["88340"],
    "pub_a_order": -1.04801342000131E7,
    "pub_a_order2": 2.000131E9,
    "pub_star_num": 3.8333333333333335,
    "prod_sale_price": 0,
    "BOOK_DEPART_CASCADID": "168400",
    "BOOK_KEYWORDS": "威廉· 萨默赛特·毛姆",
    "BOOK_DEPART": "教育社",
    "pub_resource_id": 375394,
    "pub_status": 1,
    "BOOK_PRESS_NAME": "shanghai ",
    "pub_comment_num": 3,
    "BOOK_PROOF_EDITOR": "威廉· 萨默赛特·毛姆",
    "pub_click_num": 0,
    "BOOK_WORDS": 12323,
    "BOOK_BOOK_CAT": "计算机",
    "pub_POSTER": ["../../../file/image/1593LFOU1CDTD2244521.jpg"],
    "BOOK_EDITOR": "威廉· 萨默赛特·毛姆",
    "pub_sales_num": 244,
    "prod_code": "188800000112",
    "BOOK_COVER_DESIGNER": "威廉· 萨默赛特·毛姆",
    "pub_downloads_num": 0,
    "BOOK_SERIES_NAME": "213413412",
    "pub_read_num": 3451,
    "BOOK_MAJOR_EDITOR": "测试主编威廉· 萨默赛特·毛姆",
    "BOOK_EB_PRICE": 0,
    "BOOK_PUBDATE": 1510761600000,
    "BOOK_BOOK_CATID": 88340,
    "prod_product_type": "94",
    "BOOK_COPY_DESIGNER": "威廉· 萨默赛特·毛姆",
    "pub_site_id": 2,
    "BOOK_PRINT_COMPANY": "威廉· 萨默赛特·毛姆",
    "pub_like_num": 0,
    "BOOK_LANGUAGE": "中文",
    "BOOK_BOOK_CASCADID": ["88340"],
    "BOOK_PRINT_VERSION": 12,
    "pub_lastmodified": 1521783726000,
    "BOOK_CLC_CATID": 29635,
    "prod_name": "月亮和六便士",
    "BOOK_CLC_CAT": "马克思主义、列宁主义、毛泽东思想、邓小平理论",
    "pub_resource_name": "月亮和六便士",
    "BOOK_BSN": "123231312",
    "BOOK_PRICE": 0,
    "pub_col_id": 131,
    "_version_": 1600644607089049600,
    "pub_content_type": "94",
    "BOOK_DEPART_CASCADID_1": ["168400"],
    "pub_picSmall": "../../../file/covjpg/155IGJ8PEWL0J0509864_s.jpg",
    "BOOK_SYS_CREATED": 1510823100503,
    "pub_picMiddle": "../../../file/covjpg/155IGJ8PEWL0J0509864_m.jpg",
    "BOOK_BOOK_VERSION": 12,
    "prod_resource_type": "BOOK"
  }, {
    "BOOK_SYS_AUTHORS": "刘若英",
    "BOOK_TEXT_TYPE": "随笔",
    "pub_is_eb": 1,
    "pub_picBig": "http://172.19.57.153/portal/file/covjpg/155IGJ8PEWL0J0509864.jpg",
    "pub_priview_epub": ["../../../file/priviewEpub/121PKWU6XMGAD4256110.epub"],
    "BOOK_SYS_TOPIC": "我敢在你怀里孤独",
    "pub_created": 1521526784000,
    "BOOK_ISBN": "9787208130319",
    "pub_col_name": "热销排行",
    "prod_id": 149,
    "BOOK_COPYRIGHT_MSG": "",
    "BOOK_SYNOPSIS": "《我敢在你怀里孤独》是2015年上海人民出版社出版的图书，作者是刘若英。该书收录刘若英长文自白、与八位朋友对白，以及53张精选摄影图片，探讨自处与相处的关系。",
    "BOOK_REMARK": "这几年对我来说，变化挺大。有新发现的人生，也有不适应的世界。有新学现卖的，也有我一辈子都不会懂的。\r\n然而不管怎么变化，只要能安静坐下来写点心得，我都是沾沾自喜的。\r\n单身时，一直想写一本书叫《练习一个人》。那个时候，常有朋友问我，如何可以让一个人的生活过得更有质量，过得有滋有味，甚至令人羡慕？（原来有人羡慕我！）确实，我对独处有点心得。但是，「懂得独处」和「能把孤独说得言之成理」，毕竟不是一回事。我始终没能好好跟他人分享我的心得。直到自己「脱单」，想再捞叨这事，却越想越怪了。\r\n于是转个念，我就聊聊独处与相处的关系吧。这里指的相处，包含了一个人跟自己，也可以是两个人，或一个人和很多人。\r\n我常常觉得，孤独感是与生俱来的，不会因为你是一个人，所以必定孤独，或因为有人相伴，所以圆满。孤独感对我来说并不意味着痛苦，那只是一种自己跟自己相处的状态。我希望我身边的人明白，孤独感是自生自灭的，不是因为他人导致。我这么说，一方面希望解除他人的心理负担，另方面，是我想保有孤独的自由。我很珍惜这种自由。这就是为什么，我将这本书称为「我敢在你怀里孤独」。因为保有你，我感觉幸福，同时我保有自己，所以我能安心自由。\r\n答应出版社要写书时，我还没有怀上孩子，到真正开始构思，我的身体已不是我一个人的，但我想完成这个计划的心情却越发强烈。我开始邀朋友喝茶聊天，纪录下当时我们的对话与心境，直到收集成这本杂志书。我珍惜并感谢，这段时间，我能够同时创作新生命、并孕育出这一篇篇文字。这让我被友情围绕，同时感受自由。\r\n谢谢陪我聊天的朋友，你们完全不过问我的动机，约了时间就来了。谢谢嵩龄、Ivy、如婷、亮亮，陪着我日趋涨大的身躯，满台北地跑。你们减轻我的负担与不适，同时「温柔地」提高我的效率。谢谢一直纵容我的你、你，和你们……\r\n我不确定这本怪书有什么价值，但TA一定很真实。",
    "BOOK_FORMAT": "32开",
    "BOOK_CLC_CASCADID": ["33839"],
    "prod_member_price": 1.8,
    "BOOK_FITMENT": "平装",
    "BOOK_TEXT_NUM": 304,
    "BOOK_DEPARTID": 168399,
    "BOOK_PRINTED_SHEETS": 13,
    "id": "622",
    "pub_a_order1": -1.0450141E7,
    "pub_resource_type": "BOOK",
    "BOOK_CLC_CASCADID_1": ["33839"],
    "BOOK_BOOK_CASCADID_1": ["81044"],
    "pub_a_order": -1.04501419000131E7,
    "pub_a_order2": 9.000131E9,
    "pub_star_num": 3.6153846153846154,
    "prod_sale_price": 3,
    "BOOK_DEPART_CASCADID": "168399",
    "BOOK_KEYWORDS": "散文，随笔",
    "BOOK_DEPART": "上海辞书出版社",
    "pub_resource_id": 376048,
    "pub_status": 1,
    "BOOK_PRESS_NAME": "上海人民出版社",
    "pub_comment_num": 13,
    "BOOK_PROOF_EDITOR": "娟娟",
    "pub_click_num": 0,
    "BOOK_WORDS": 13323,
    "BOOK_BOOK_CAT": "高等教育",
    "BOOK_EDITOR": "飞飞",
    "pub_sales_num": 4,
    "prod_code": "188800000149",
    "BOOK_COVER_DESIGNER": "随笔",
    "pub_downloads_num": 0,
    "BOOK_SERIES_NAME": "随笔",
    "pub_read_num": 294,
    "BOOK_MAJOR_EDITOR": "随笔",
    "BOOK_EB_PRICE": 3,
    "BOOK_PUBDATE": 1434038400000,
    "BOOK_BOOK_CATID": 81044,
    "prod_product_type": "94",
    "BOOK_COPY_DESIGNER": "随笔",
    "pub_site_id": 2,
    "BOOK_PRINT_COMPANY": "随笔",
    "pub_like_num": 0,
    "BOOK_LANGUAGE": "中文",
    "BOOK_BOOK_CASCADID": ["81044"],
    "BOOK_PRINT_VERSION": 12,
    "pub_lastmodified": 1521526777000,
    "BOOK_CLC_CATID": 33839,
    "prod_name": "我敢在你怀里孤独",
    "BOOK_CLC_CAT": "文化、科学、教育、体育",
    "pub_resource_name": "我敢在你怀里孤独",
    "BOOK_BSN": "随笔",
    "BOOK_PRICE": 39,
    "pub_col_id": 131,
    "_version_": 1600644604600778752,
    "pub_content_type": "94",
    "BOOK_DEPART_CASCADID_1": ["168399"],
    "pub_picSmall": "../../../file/covjpg/119DU0Z5F4UB14240176_s.jpg",
    "BOOK_SYS_CREATED": 1513064542367,
    "pub_picMiddle": "../../../file/covjpg/119DU0Z5F4UB14240176_m.jpg",
    "BOOK_BOOK_VERSION": 21,
    "prod_resource_type": "BOOK"
  }, {
    "BOOK_SYS_AUTHORS": "Thomas H.Cormen、Charles E.Leiserson等",
    "BOOK_TEXT_TYPE": " 胶版纸",
    "pub_is_eb": 1,
    "pub_picBig": "http://172.19.57.153/portal/file/covjpg/155IGJ8PEWL0J0509864.jpg",
    "BOOK_SYS_TOPIC": "算法导论",
    "pub_created": 1521443239000,
    "BOOK_ISBN": "9787111187776",
    "pub_col_name": "热销排行",
    "prod_id": 102,
    "BOOK_COPYRIGHT_MSG": "",
    "BOOK_SYNOPSIS": "《算法导论》自第一版出版以来，已经成为世界范围内广泛使用的大学教材和专业人员的标准参考手册。本书全面论述了算法的内容，从一定深度上涵盖了算法的诸多方面，同时其讲授和分析方法又兼顾了各个层次读者的接受能力。各章内容自成体系，可作为独立单元学习。所有算法都用英文和伪码描述，使具备初步编程经验的人也可读懂。全书讲解通俗易懂，且不失深度和数学上的严谨性。第二版增加了新的章节，如算法作用、概率分析与随机算法、线性编程等，几乎对第一版的各个部分都作了大量修订。本书深入浅出，全面地介绍了计算机算法。对每一个算法的分析既易于理解又十分有趣，并保持了数学严谨性。本书的设计目标全面，适用于多种用途。涵盖的内容有：算法在计算中的作用，概率分析和随机算法的介绍。本书专门讨论了线性规划，介绍了动态规划的两个应用，随机化和线性规划技术的近似算法等，还有有关递归求解、快速排序中用到的划分方法与期望线性时间顺序统计算法，以及对贪心算法元素的讨论。本书还介绍了对强连通子图算法正确性的证明，对哈密顿回路和子集求和问题的NP完全性的证明等内容。全书提供了900多个练习题和思考题以及叙述较为详细的实例研究。本书内容丰富，对本科生的数据结构课程和研究生的算法课程都是很实用的教材。本书在读者的职业生涯中，也是一本案头的数学参考书或工程实践手册。",
    "BOOK_REMARK": "",
    "BOOK_FORMAT": "16开",
    "BOOK_CLC_CASCADID": ["80711"],
    "prod_member_price": 0,
    "BOOK_FITMENT": "平装",
    "BOOK_TEXT_NUM": 754,
    "id": "552",
    "pub_a_order1": -1.044015E7,
    "pub_resource_type": "BOOK",
    "BOOK_CLC_CASCADID_1": ["80711"],
    "BOOK_BOOK_CASCADID_1": ["88340"],
    "pub_a_order": -1.04401507000131E7,
    "pub_a_order2": 7.000131E9,
    "pub_star_num": 0,
    "prod_sale_price": 0,
    "BOOK_DEPART_CASCADID": "168399",
    "BOOK_KEYWORDS": "算法",
    "BOOK_DEPART": "上海辞书出版社",
    "pub_resource_id": 380610,
    "pub_status": 1,
    "BOOK_PRESS_NAME": "机械工业出版社出版（第二版）",
    "pub_comment_num": 0,
    "BOOK_PROOF_EDITOR": "",
    "pub_click_num": 0,
    "BOOK_BOOK_CAT": "计算机",
    "pub_POSTER": ["../../../file/image/385OXHUBEC1Q21220096.jpg"],
    "BOOK_EDITOR": "",
    "pub_sales_num": 2,
    "prod_code": "188800000102",
    "BOOK_COVER_DESIGNER": "",
    "pub_downloads_num": 0,
    "BOOK_SERIES_NAME": "",
    "pub_read_num": 16,
    "BOOK_MAJOR_EDITOR": "",
    "BOOK_PUBDATE": 1157040000000,
    "BOOK_BOOK_CATID": 88340,
    "prod_product_type": "94",
    "BOOK_COPY_DESIGNER": "",
    "pub_site_id": 2,
    "BOOK_PRINT_COMPANY": "",
    "pub_like_num": 0,
    "BOOK_LANGUAGE": "中英",
    "BOOK_BOOK_CASCADID": ["88340"],
    "BOOK_PRINT_VERSION": 14,
    "pub_lastmodified": 1521443229000,
    "BOOK_CLC_CATID": 80711,
    "prod_name": "算法导论",
    "BOOK_CLC_CAT": "综合性图书",
    "pub_resource_name": "算法导论",
    "BOOK_BSN": "",
    "BOOK_PRICE": 53,
    "pub_col_id": 131,
    "_version_": 1600644598204465152,
    "pub_content_type": "94",
    "BOOK_DEPART_CASCADID_1": ["168399"],
    "pub_picSmall": "../../../file/covjpg/3836PH4O2AHAD1204811_s.jpg",
    "BOOK_SYS_CREATED": 1515039065870,
    "pub_picMiddle": "../../../file/covjpg/3836PH4O2AHAD1204811_m.jpg",
    "BOOK_BOOK_VERSION": 1,
    "prod_resource_type": "BOOK"
  }, {
    "BOOK_SYS_AUTHORS": "Charles Petzold",
    "BOOK_TEXT_TYPE": "",
    "pub_is_eb": 1,
    "pub_picBig": "http://172.19.57.153/portal/file/covjpg/155IGJ8PEWL0J0509864.jpg",
    "BOOK_SYS_TOPIC": "编码的奥秘",
    "pub_created": 1521443239000,
    "BOOK_ISBN": "7111080785",
    "pub_col_name": "热销排行",
    "prod_id": 103,
    "BOOK_COPYRIGHT_MSG": "",
    "BOOK_SYNOPSIS": "",
    "BOOK_REMARK": "",
    "BOOK_FORMAT": "16开",
    "BOOK_CLC_CASCADID": ["80711"],
    "prod_member_price": 0,
    "BOOK_FITMENT": "平装(无盘)",
    "BOOK_TEXT_NUM": 273,
    "BOOK_DEPARTID": 168399,
    "id": "553",
    "pub_a_order1": -1.044015E7,
    "pub_resource_type": "BOOK",
    "BOOK_CLC_CASCADID_1": ["80711"],
    "BOOK_BOOK_CASCADID_1": ["88340"],
    "pub_a_order": -1.04401507000131E7,
    "pub_a_order2": 7.000131E9,
    "pub_star_num": 0,
    "prod_sale_price": 0,
    "BOOK_DEPART_CASCADID": "168399",
    "BOOK_KEYWORDS": "编码",
    "BOOK_DEPART": "上海辞书出版社",
    "pub_resource_id": 380608,
    "pub_status": 1,
    "BOOK_PRESS_NAME": "机械工业出版社",
    "pub_comment_num": 0,
    "BOOK_PROOF_EDITOR": "",
    "pub_click_num": 0,
    "BOOK_BOOK_CAT": "计算机",
    "pub_POSTER": ["../../../file/image/382KWP25HTJVW0348274.jpg"],
    "BOOK_EDITOR": "",
    "pub_sales_num": 2,
    "prod_code": "188800000103",
    "BOOK_COVER_DESIGNER": "",
    "pub_downloads_num": 0,
    "BOOK_SERIES_NAME": "",
    "pub_read_num": 9,
    "BOOK_MAJOR_EDITOR": "",
    "BOOK_PUBDATE": 967737600000,
    "BOOK_BOOK_CATID": 88340,
    "prod_product_type": "94",
    "BOOK_COPY_DESIGNER": "",
    "pub_site_id": 2,
    "BOOK_PRINT_COMPANY": "",
    "pub_like_num": 0,
    "BOOK_LANGUAGE": "中文",
    "BOOK_BOOK_CASCADID": ["88340"],
    "BOOK_PRINT_VERSION": 13,
    "pub_lastmodified": 1521443229000,
    "BOOK_CLC_CATID": 80711,
    "prod_name": "编码的奥秘",
    "BOOK_CLC_CAT": "综合性图书",
    "pub_resource_name": "编码的奥秘",
    "BOOK_BSN": "",
    "BOOK_PRICE": 24,
    "pub_col_id": 131,
    "_version_": 1600644598366994432,
    "pub_content_type": "94",
    "BOOK_DEPART_CASCADID_1": ["168399"],
    "pub_picSmall": "../../../file/covjpg/381V1J56EWVZ60345327_s.jpg",
    "BOOK_SYS_CREATED": 1515038611440,
    "pub_picMiddle": "../../../file/covjpg/381V1J56EWVZ60345327_m.jpg",
    "BOOK_BOOK_VERSION": 1,
    "prod_resource_type": "BOOK"
  }, {
    "BOOK_SYS_AUTHORS": "Noam Nisan / Shimon Schocken ",
    "BOOK_TEXT_TYPE": "轻型纸",
    "pub_is_eb": 1,
    "pub_picBig": "http://172.19.57.153/portal/file/covjpg/155IGJ8PEWL0J0509864.jpg",
    "BOOK_SYS_TOPIC": "The Elements of Computing_Systems",
    "pub_created": 1521443239000,
    "BOOK_ISBN": "9780262140874",
    "pub_col_name": "热销排行",
    "prod_id": 105,
    "BOOK_COPYRIGHT_MSG": "",
    "BOOK_SYNOPSIS": "",
    "BOOK_REMARK": "",
    "BOOK_FORMAT": "16开",
    "BOOK_CLC_CASCADID": ["80711"],
    "prod_member_price": 0,
    "BOOK_FITMENT": "Hardcover",
    "BOOK_TEXT_NUM": 341,
    "BOOK_DEPARTID": 168399,
    "id": "555",
    "pub_a_order1": -1.044015E7,
    "pub_resource_type": "BOOK",
    "BOOK_CLC_CASCADID_1": ["80711"],
    "BOOK_BOOK_CASCADID_1": ["88340"],
    "pub_a_order": -1.04401507000131E7,
    "pub_a_order2": 7.000131E9,
    "pub_star_num": 0,
    "prod_sale_price": 0,
    "BOOK_DEPART_CASCADID": "168399",
    "BOOK_KEYWORDS": "计算机  操作系统  计算机硬件",
    "BOOK_DEPART": "上海辞书出版社",
    "pub_resource_id": 380604,
    "pub_status": 1,
    "BOOK_PRESS_NAME": "The MIT Press",
    "pub_comment_num": 0,
    "BOOK_PROOF_EDITOR": "",
    "pub_click_num": 0,
    "BOOK_BOOK_CAT": "计算机",
    "pub_POSTER": ["../../../file/image/3775030E5NGLG2432699.jpg"],
    "BOOK_EDITOR": "",
    "pub_sales_num": 0,
    "prod_code": "188800000105",
    "BOOK_COVER_DESIGNER": "",
    "pub_downloads_num": 0,
    "BOOK_SERIES_NAME": "",
    "pub_read_num": 3,
    "BOOK_MAJOR_EDITOR": "",
    "BOOK_PUBDATE": 1496246400000,
    "BOOK_BOOK_CATID": 88340,
    "prod_product_type": "94",
    "BOOK_COPY_DESIGNER": "",
    "pub_site_id": 2,
    "BOOK_PRINT_COMPANY": "",
    "pub_like_num": 0,
    "BOOK_LANGUAGE": "英文",
    "BOOK_BOOK_CASCADID": ["88340"],
    "BOOK_PRINT_VERSION": 11,
    "pub_lastmodified": 1521443229000,
    "BOOK_CLC_CATID": 80711,
    "prod_name": "The Elements of Computing_Systems",
    "BOOK_CLC_CAT": "综合性图书",
    "pub_resource_name": "The Elements of Computing_Systems",
    "BOOK_BSN": "",
    "BOOK_PRICE": 265,
    "pub_col_id": 131,
    "_version_": 1600644598684712960,
    "pub_content_type": "94",
    "BOOK_DEPART_CASCADID_1": ["168399"],
    "pub_picSmall": "../../../file/covjpg/3750S7WDZU7EM2406666_s.jpg",
    "BOOK_SYS_CREATED": 1515036185410,
    "pub_picMiddle": "../../../file/covjpg/3750S7WDZU7EM2406666_m.jpg",
    "BOOK_BOOK_VERSION": 1,
    "prod_resource_type": "BOOK"
  }, {
    "BOOK_SYS_AUTHORS": "飞飞",
    "BOOK_TEXT_TYPE": "213",
    "pub_is_eb": 1,
    "pub_picBig": "http://172.19.57.153/portal/file/covjpg/155IGJ8PEWL0J0509864.jpg",
    "BOOK_SYS_TOPIC": "测试习题集",
    "pub_created": 1521443239000,
    "BOOK_ISBN": "17432424",
    "pub_col_name": "热销排行",
    "prod_id": 106,
    "BOOK_COPYRIGHT_MSG": "飞飞",
    "BOOK_SYNOPSIS": "飞飞飞飞飞飞飞飞飞飞飞飞飞飞飞飞飞飞飞飞",
    "BOOK_REMARK": "飞飞",
    "BOOK_FORMAT": "64开",
    "BOOK_CLC_CASCADID": ["29635"],
    "prod_member_price": 0.6,
    "BOOK_FITMENT": "飞飞",
    "BOOK_TEXT_NUM": 1321,
    "BOOK_DEPARTID": 168399,
    "BOOK_PRINTED_SHEETS": 223,
    "id": "556",
    "pub_a_order1": -1.044015E7,
    "pub_resource_type": "BOOK",
    "BOOK_CLC_CASCADID_1": ["29635"],
    "BOOK_BOOK_CASCADID_1": ["88340"],
    "pub_a_order": -1.04401507000131E7,
    "pub_a_order2": 7.000131E9,
    "BOOK_BOOK_CASCADID_2": ["88341"],
    "pub_star_num": 0,
    "prod_sale_price": 1,
    "BOOK_DEPART_CASCADID": "168399",
    "BOOK_KEYWORDS": "飞飞",
    "BOOK_DEPART": "上海辞书出版社",
    "pub_resource_id": 376287,
    "pub_status": 1,
    "BOOK_PRESS_NAME": "上级",
    "pub_comment_num": 6,
    "BOOK_PROOF_EDITOR": "飞飞",
    "pub_click_num": 0,
    "BOOK_WORDS": 23234243,
    "BOOK_BOOK_CAT": "计算机~C",
    "BOOK_EDITOR": "飞飞",
    "pub_sales_num": 1,
    "prod_code": "188800000106",
    "BOOK_COVER_DESIGNER": "飞飞",
    "pub_downloads_num": 0,
    "BOOK_SERIES_NAME": "飞飞",
    "pub_read_num": 53,
    "BOOK_MAJOR_EDITOR": "飞飞",
    "BOOK_EB_PRICE": 1,
    "BOOK_PUBDATE": 1513180800000,
    "BOOK_BOOK_CATID": 88341,
    "prod_product_type": "94",
    "BOOK_COPY_DESIGNER": "飞飞",
    "pub_site_id": 2,
    "BOOK_PRINT_COMPANY": "飞飞",
    "pub_like_num": 0,
    "BOOK_LANGUAGE": "中文",
    "BOOK_BOOK_CASCADID": ["88340_88341"],
    "BOOK_PRINT_VERSION": 32,
    "pub_lastmodified": 1521443229000,
    "BOOK_CLC_CATID": 29635,
    "prod_name": "测试习题集",
    "BOOK_CLC_CAT": "马克思主义、列宁主义、毛泽东思想、邓小平理论",
    "pub_resource_name": "测试习题集",
    "BOOK_BSN": "飞飞",
    "BOOK_PRICE": 23,
    "pub_col_id": 131,
    "_version_": 1600644598830465024,
    "pub_content_type": "94",
    "BOOK_DEPART_CASCADID_1": ["168399"],
    "pub_picSmall": "../../../file/covjpg/108CSUB654RKA0241231_s.jpg",
    "BOOK_SYS_CREATED": 1513155746813,
    "pub_picMiddle": "../../../file/covjpg/108CSUB654RKA0241231_m.jpg",
    "BOOK_BOOK_VERSION": 43,
    "prod_resource_type": "BOOK"
  }, {
    "BOOK_SYS_AUTHORS": "大冰",
    "BOOK_TEXT_TYPE": "232",
    "pub_is_eb": 1,
    "pub_picBig": "http://172.19.57.153/portal/file/covjpg/155IGJ8PEWL0J0509864.jpg",
    "pub_priview_epub": ["../../../file/priviewEpub/118CLODLNGIVL3052977.epub"],
    "BOOK_SYS_TOPIC": "他们最幸福",
    "pub_created": 1521443239000,
    "BOOK_ISBN": "1732323",
    "pub_col_name": "热销排行",
    "prod_id": 107,
    "BOOK_COPYRIGHT_MSG": "飞飞飞飞",
    "BOOK_SYNOPSIS": "我是摘要  哈哈哈哈飞飞飞飞飞飞",
    "BOOK_REMARK": "飞飞飞飞飞飞飞飞飞飞飞飞关键词关键词关键词关键词关键词关键词关键词",
    "BOOK_FORMAT": "全开",
    "prod_member_price": 0.6,
    "BOOK_FITMENT": "飞飞",
    "BOOK_TEXT_NUM": 2323,
    "BOOK_PRINTED_SHEETS": 123,
    "id": "557",
    "pub_a_order1": -1.044015E7,
    "pub_resource_type": "BOOK",
    "BOOK_BOOK_CASCADID_1": ["88340"],
    "pub_a_order": -1.04401507000131E7,
    "pub_a_order2": 7.000131E9,
    "BOOK_BOOK_CASCADID_2": ["88342"],
    "pub_star_num": 2.2,
    "prod_sale_price": 1,
    "BOOK_KEYWORDS": "关键词",
    "BOOK_DEPART": "",
    "pub_resource_id": 376045,
    "pub_status": 1,
    "BOOK_PRESS_NAME": "上啊哈hi",
    "pub_comment_num": 1,
    "BOOK_PROOF_EDITOR": "飞飞",
    "pub_click_num": 0,
    "BOOK_WORDS": 1323,
    "BOOK_BOOK_CAT": "计算机~JAVA",
    "pub_POSTER": ["../../../file/image/116KPNB30E13J3041180.jpg"],
    "BOOK_EDITOR": "飞飞",
    "pub_sales_num": 1,
    "prod_code": "188800000107",
    "BOOK_COVER_DESIGNER": "飞飞",
    "pub_downloads_num": 0,
    "BOOK_SERIES_NAME": "2323",
    "pub_read_num": 145,
    "BOOK_MAJOR_EDITOR": "飞飞",
    "BOOK_EB_PRICE": 1,
    "BOOK_PUBDATE": 1513785600000,
    "pub_priview_txtlpdf": ["../../../file/priviewTxtlpdf/117UPGMCLPG7V3046274.pdf"],
    "BOOK_BOOK_CATID": 88342,
    "prod_product_type": "94",
    "BOOK_COPY_DESIGNER": "飞飞",
    "pub_site_id": 2,
    "BOOK_PRINT_COMPANY": "飞飞",
    "pub_like_num": 0,
    "BOOK_LANGUAGE": "英文",
    "BOOK_BOOK_CASCADID": ["88340_88342"],
    "BOOK_PRINT_VERSION": 12,
    "pub_lastmodified": 1521443229000,
    "prod_name": "他们最幸福",
    "BOOK_CLC_CAT": "",
    "pub_resource_name": "他们最幸福",
    "BOOK_BSN": "飞飞",
    "pub_col_id": 131,
    "_version_": 1600644598988800000,
    "pub_content_type": "94",
    "pub_picSmall": "../../../file/covjpg/113LPIJ8T66TY3019353_s.jpg",
    "BOOK_SYS_CREATED": 1513063812920,
    "pub_picMiddle": "../../../file/covjpg/113LPIJ8T66TY3019353_m.jpg",
    "BOOK_BOOK_VERSION": 1122,
    "prod_resource_type": "BOOK"
  }, {
    "BOOK_SYS_AUTHORS": "",
    "BOOK_TEXT_TYPE": "",
    "pub_is_eb": 1,
    "pub_picBig": "http://172.19.57.153/portal/file/covjpg/155IGJ8PEWL0J0509864.jpg",
    "BOOK_SYS_TOPIC": "测试图书-茶花女",
    "pub_created": 1521443240000,
    "BOOK_ISBN": "978-7-5653-0659-1",
    "pub_col_name": "热销排行",
    "prod_id": 108,
    "BOOK_COPYRIGHT_MSG": "",
    "BOOK_SYNOPSIS": "",
    "BOOK_REMARK": "",
    "BOOK_FORMAT": "全开",
    "prod_member_price": 9,
    "BOOK_FITMENT": "",
    "id": "558",
    "pub_a_order1": -1.044015E7,
    "pub_resource_type": "BOOK",
    "BOOK_BOOK_CASCADID_1": ["88340"],
    "pub_a_order": -1.04401507000131E7,
    "pub_a_order2": 7.000131E9,
    "pub_star_num": 0,
    "prod_sale_price": 15,
    "BOOK_KEYWORDS": "",
    "BOOK_DEPART": "",
    "pub_resource_id": 375584,
    "pub_status": 1,
    "BOOK_PRESS_NAME": "测试出版社",
    "pub_comment_num": 0,
    "BOOK_PROOF_EDITOR": "",
    "pub_click_num": 0,
    "BOOK_BOOK_CAT": "计算机",
    "BOOK_EDITOR": "",
    "pub_sales_num": 1,
    "prod_code": "188800000108",
    "BOOK_COVER_DESIGNER": "",
    "pub_downloads_num": 0,
    "BOOK_SERIES_NAME": "",
    "pub_read_num": 13,
    "BOOK_MAJOR_EDITOR": "",
    "BOOK_EB_PRICE": 15,
    "BOOK_PUBDATE": 1512144000000,
    "BOOK_BOOK_CATID": 88340,
    "prod_product_type": "94",
    "BOOK_COPY_DESIGNER": "",
    "pub_site_id": 2,
    "BOOK_PRINT_COMPANY": "",
    "pub_like_num": 0,
    "BOOK_LANGUAGE": "中文",
    "BOOK_BOOK_CASCADID": ["88340"],
    "BOOK_PRINT_VERSION": 1,
    "pub_lastmodified": 1521443229000,
    "prod_name": "测试图书-茶花女",
    "BOOK_CLC_CAT": "",
    "pub_resource_name": "测试图书-茶花女",
    "BOOK_BSN": "",
    "pub_col_id": 131,
    "_version_": 1600644599136649216,
    "pub_content_type": "94",
    "pub_picSmall": "../../../file/covjpg/112TCURXUWGP12235245_s.jpg",
    "BOOK_SYS_CREATED": 1512201622677,
    "pub_picMiddle": "../../../file/covjpg/112TCURXUWGP12235245_m.jpg",
    "BOOK_BOOK_VERSION": 1,
    "prod_resource_type": "BOOK"
  }, {
    "BOOK_SYS_AUTHORS": "加西亚·马尔克斯",
    "BOOK_TEXT_TYPE": "13234",
    "pub_is_eb": 1,
    "pub_picBig": "http://172.19.57.153/portal/file/covjpg/155IGJ8PEWL0J0509864.jpg",
    "pub_priview_epub": ["../../../file/priviewEpub/121MR77JGYQ0Z1433412.epub"],
    "BOOK_SYS_TOPIC": "活着是为了讲述",
    "pub_created": 1521443240000,
    "BOOK_ISBN": "9787544281584",
    "pub_col_name": "热销排行",
    "prod_id": 109,
    "BOOK_COPYRIGHT_MSG": "",
    "BOOK_SYNOPSIS": "",
    "BOOK_REMARK": "★ 《百年孤独》作者马尔克斯唯一自传\r\n★ 首版首次赠限量别册（含地图、人名索引、加博书单、作品年表）+ 雕刻时光咖啡券\r\n★ “我年轻过，落魄过，幸福过，我对生活一往情深。”——加西亚·马尔克斯\r\n★ 生活不是我们活过的日子，而是我们记住的日子，我们为了讲述而在记忆中重现的日子。\r\n★ 正是回忆中的这些细节、生命中的这些人将马尔克斯带到了《百年孤独》的门口； 能够解开《百年孤独》密码的，只有《活着为了讲述》；马尔克斯小说中的人物都能在本书中找到原型。\r\n★ 一个在贫穷困苦中行走的年轻人，如何始终保有幽默和快乐，最后夺取人生的桂冠？\r\n★ 诺奖得主、纯文学畅销奇迹创造者马尔克斯的成长故事：充满魔幻色彩的真实人生。\r\n=======================\r\n他是举世闻名的文学大师，《百年孤独》《霍乱时期的爱情》等传世巨著的作者，被誉为“20世纪的文学标杆”。\r\n同时，他也是一个爱讲故事的孩子。\r\n他想说的是：爱真的存在，幸福真的可能，死神也会败在幸福手下。\r\n他是加西亚·马尔克斯。",
    "BOOK_FORMAT": "全开",
    "BOOK_CLC_CASCADID": ["33839"],
    "prod_member_price": 7.2,
    "BOOK_FITMENT": "飞飞",
    "BOOK_TEXT_NUM": 1233,
    "BOOK_DEPARTID": 168399,
    "BOOK_PRINTED_SHEETS": 1212,
    "id": "559",
    "pub_a_order1": -1.044015E7,
    "pub_resource_type": "BOOK",
    "BOOK_CLC_CASCADID_1": ["33839"],
    "BOOK_BOOK_CASCADID_1": ["88340"],
    "pub_a_order": -1.04401507000131E7,
    "pub_a_order2": 7.000131E9,
    "pub_star_num": 0,
    "prod_sale_price": 12,
    "BOOK_DEPART_CASCADID": "168399",
    "BOOK_KEYWORDS": "活着为了什么",
    "BOOK_DEPART": "上海辞书出版社",
    "pub_resource_id": 375575,
    "pub_status": 1,
    "BOOK_PRESS_NAME": "南海出版公司",
    "pub_comment_num": 0,
    "BOOK_PROOF_EDITOR": "飞飞",
    "pub_click_num": 0,
    "BOOK_WORDS": 13232434,
    "BOOK_BOOK_CAT": "计算机",
    "BOOK_EDITOR": "飞飞",
    "pub_sales_num": 9,
    "prod_code": "188800000109",
    "BOOK_COVER_DESIGNER": "飞飞",
    "pub_downloads_num": 0,
    "BOOK_SERIES_NAME": "飞飞",
    "pub_read_num": 175,
    "BOOK_MAJOR_EDITOR": "飞飞",
    "BOOK_EB_PRICE": 12,
    "BOOK_PUBDATE": 1513785600000,
    "pub_priview_txtlpdf": ["../../../file/priviewTxtlpdf/1200YSJ5RBEOG1426155.pdf"],
    "BOOK_BOOK_CATID": 88340,
    "prod_product_type": "94",
    "BOOK_COPY_DESIGNER": "飞飞",
    "pub_site_id": 2,
    "BOOK_PRINT_COMPANY": "飞飞",
    "pub_like_num": 0,
    "BOOK_LANGUAGE": "法文",
    "BOOK_BOOK_CASCADID": ["88340"],
    "BOOK_PRINT_VERSION": 123,
    "pub_lastmodified": 1521443229000,
    "BOOK_CLC_CATID": 33839,
    "prod_name": "活着是为了讲述",
    "BOOK_CLC_CAT": "文化、科学、教育、体育",
    "pub_resource_name": "活着是为了讲述",
    "BOOK_BSN": "飞飞",
    "BOOK_PRICE": 55,
    "pub_col_id": 131,
    "_version_": 1600644599291838464,
    "pub_content_type": "94",
    "BOOK_DEPART_CASCADID_1": ["168399"],
    "pub_picSmall": "../../../file/covjpg/117UUY3ADZ4TA1332033_s.jpg",
    "BOOK_SYS_CREATED": 1512098005087,
    "pub_picMiddle": "../../../file/covjpg/117UUY3ADZ4TA1332033_m.jpg",
    "BOOK_BOOK_VERSION": 123,
    "prod_resource_type": "BOOK"
  }],
  "pageNo": 1,
  "success": true,
  "totalPages": 2,
  "first": 1
}
