{
  "last": 4,
  "prePage": 1,
  "nextPage": 2,
  "start": 0,
  "pageSize": 4,
  "description": "查询成功！",
  "hasNext": true,
  "totalCount": 101,
  "hasPre": false,
  "result": [
    {
      "BOOK_SYS_AUTHORS": "【日】川端康成",
      "BOOK_TEXT_TYPE": "324",
      "pub_is_eb": 1,
      "pub_picBig": "/portal/file/covjpg/112508UHPS2L60946066.jpg",
      "pub_priview_epub": [
        "/portal/file/priviewEpub/1148TKVXL306Q0958711.epub"
      ],
      "BOOK_SYS_TOPIC": "雪国",
      "pub_created": 1514276211000,
      "BOOK_ISBN": "97831313",
      "pub_col_name": "热销排行",
      "prod_id": 5049,
      "BOOK_SYNOPSIS": "《雪国》是川端康成最高代表作，其间描绘的虚无之美、洁净之美与悲哀之美达到极致，令人怦然心动，又惆怅不已。作品中唯美的意象描写融入至人物情感的表达之中，往往带着淡淡的哀思，表现了川端康成的物哀思想。",
      "BOOK_COPYRIGHT_MSG": "【日】川端康成",
      "BOOK_REMARK": "《雪国》（ゆきぐに）是日本作家川端康成创作的第一部中篇小说，也是他唯美主义代表之作，从1935年起以短篇的形式，分别以《暮景的镜》、《白昼的镜》等题名，断断续续地发表在《文艺春秋》、《改造》等杂志上，相互之间并没有紧密相连的情节，直至全部完成并经认真修改后，才冠以《雪国》于1948年汇集出版单行本。",
      "BOOK_FORMAT": "全开",
      "BOOK_CLC_CASCADID": [
        "35259"
      ],
      "prod_member_price": 1,
      "BOOK_FITMENT": "【日】川端康成",
      "BOOK_TEXT_NUM": 12132,
      "BOOK_PRINTED_SHEETS": 12,
      "id": "597",
      "pub_a_order1": -9610161,
      "pub_resource_type": "BOOK",
      "BOOK_CLC_CASCADID_1": [
        "35259"
      ],
      "BOOK_BOOK_CASCADID_1": [
        "81044"
      ],
      "pub_a_order": -9610161.6000131,
      "pub_a_order2": 6.000131E9,
      "pub_star_num": 0,
      "prod_sale_price": 1,
      "BOOK_DEPART_CASCADID": "168401",
      "BOOK_KEYWORDS": "中篇小说雪国",
      "BOOK_DEPART": "人民出版社",
      "pub_resource_id": 375380,
      "pub_status": 1,
      "BOOK_PRESS_NAME": "山东",
      "pub_comment_num": 0,
      "BOOK_PROOF_EDITOR": "【日】川端康成",
      "pub_click_num": 0,
      "BOOK_WORDS": 12434,
      "BOOK_BOOK_CAT": "高等教育",
      "pub_POSTER": [
        "/portal/file/image/116A82D2VK0EZ1012538.jpg"
      ],
      "BOOK_EDITOR": "【日】川端康成",
      "pub_sales_num": 0,
      "prod_code": "178800005109",
      "BOOK_COVER_DESIGNER": "【日】川端康成",
      "pub_downloads_num": 0,
      "BOOK_SERIES_NAME": "34343332323",
      "pub_read_num": 44,
      "BOOK_MAJOR_EDITOR": "【日】川端康成",
      "BOOK_EB_PRICE": 1,
      "BOOK_PUBDATE": 1511193600000,
      "pub_priview_txtlpdf": [
        "/portal/file/priviewTxtlpdf/115H52MD4XT1L1004688.pdf"
      ],
      "BOOK_BOOK_CATID": 81044,
      "prod_product_type": "94",
      "BOOK_COPY_DESIGNER": "【日】川端康成",
      "pub_site_id": 2,
      "BOOK_PRINT_COMPANY": "【日】川端康成",
      "pub_like_num": 0,
      "BOOK_LANGUAGE": "日文",
      "BOOK_BOOK_CASCADID": [
        "81044"
      ],
      "BOOK_PRINT_VERSION": 3234,
      "pub_lastmodified": 1514276176000,
      "BOOK_CLC_CATID": 35259,
      "prod_name": "雪国",
      "BOOK_CLC_CAT": "语言、文字",
      "pub_resource_name": "雪国",
      "BOOK_BSN": "32224231",
      "BOOK_PRICE": 34,
      "pub_col_id": 131,
      "_version_": 1589624750518304768,
      "pub_content_type": "94",
      "BOOK_DEPART_CASCADID_1": [
        "168401"
      ],
      "pub_picSmall": "/portal/file/covjpg/112508UHPS2L60946066_s.jpg",
      "BOOK_SYS_CREATED": 1510801627423,
      "pub_picMiddle": "/portal/file/covjpg/112508UHPS2L60946066_m.jpg",
      "BOOK_BOOK_VERSION": 12,
      "prod_resource_type": "BOOK"
    },
    {
      "BOOK_SYS_AUTHORS": "余秋雨",
      "BOOK_TEXT_TYPE": "",
      "pub_is_eb": 1,
      "pub_picBig": "/portal/file/covjpg/2924TCAFFLKAZ3250626.jpg",
      "BOOK_SYS_TOPIC": "文化苦旅",
      "pub_created": 1514276204000,
      "BOOK_ISBN": "17342424",
      "pub_col_name": "热销排行",
      "prod_id": 4999,
      "BOOK_SYNOPSIS": "",
      "BOOK_COPYRIGHT_MSG": "",
      "BOOK_REMARK": "《文化苦旅》是当代学者、作家余秋雨的一部散文集。于1992年首次出版，是余秋雨先生二十世纪八十年代末和九十年代初在海内外讲学和考察途中写下的作品，是他的第一部文化散文集。全书主要包括四部分，分别为如梦起点、中国之旅、世界之旅、人生之旅。[1] \r\n全书凭借山水风物来寻求文化灵魂和人生真谛，探索中国文化的历史命运和中国文人的人格。该书获得了全国金钥匙图书二等奖，上海市优秀图书一等奖，上海市第二届文学艺术成果奖，台湾最佳读书奖。[2] ",
      "BOOK_FORMAT": "全开",
      "prod_member_price": 0,
      "BOOK_FITMENT": "",
      "BOOK_TEXT_NUM": 23,
      "id": "547",
      "pub_a_order1": -9610161,
      "pub_resource_type": "BOOK",
      "BOOK_BOOK_CASCADID_1": [
        "81044"
      ],
      "pub_a_order": -9610161.6000131,
      "pub_a_order2": 6.000131E9,
      "pub_star_num": 0,
      "prod_sale_price": 0,
      "BOOK_KEYWORDS": "",
      "BOOK_DEPART": "",
      "pub_resource_id": 378134,
      "pub_status": 1,
      "BOOK_PRESS_NAME": "饿1 ",
      "pub_comment_num": 0,
      "BOOK_PROOF_EDITOR": "",
      "pub_click_num": 0,
      "BOOK_WORDS": 234000,
      "BOOK_BOOK_CAT": "高等教育",
      "BOOK_EDITOR": "",
      "pub_sales_num": 11,
      "prod_code": "178800005059",
      "BOOK_COVER_DESIGNER": "",
      "pub_downloads_num": 0,
      "BOOK_SERIES_NAME": "散文集",
      "pub_read_num": 38,
      "BOOK_MAJOR_EDITOR": "",
      "BOOK_PUBDATE": 709401600000,
      "BOOK_BOOK_CATID": 81044,
      "prod_product_type": "94",
      "BOOK_COPY_DESIGNER": "",
      "pub_site_id": 2,
      "BOOK_PRINT_COMPANY": "",
      "pub_like_num": 0,
      "BOOK_LANGUAGE": "中文",
      "BOOK_BOOK_CASCADID": [
        "81044"
      ],
      "BOOK_PRINT_VERSION": 21,
      "pub_lastmodified": 1514276172000,
      "prod_name": "文化苦旅",
      "BOOK_CLC_CAT": "",
      "pub_resource_name": "文化苦旅",
      "BOOK_BSN": "",
      "pub_col_id": 131,
      "_version_": 1589624742066782208,
      "pub_content_type": "94",
      "pub_picSmall": "/portal/file/covjpg/2924TCAFFLKAZ3250626_s.jpg",
      "BOOK_SYS_CREATED": 1514176361413,
      "pub_picMiddle": "/portal/file/covjpg/2924TCAFFLKAZ3250626_m.jpg",
      "BOOK_BOOK_VERSION": 21,
      "prod_resource_type": "BOOK"
    },
    {
      "BOOK_SYS_AUTHORS": "哈哈哈",
      "BOOK_TEXT_TYPE": "322",
      "pub_is_eb": 1,
      "pub_picBig": "/portal/file/covjpg/23880DDWLEJFY0526144.jpg",
      "pub_priview_epub": [
        "/portal/file/priviewEpub/240OJNER2MA8M0540823.epub"
      ],
      "BOOK_SYS_TOPIC": "重塑心灵",
      "pub_created": 1514276205000,
      "BOOK_ISBN": "978-7-5502-5146-5",
      "pub_col_name": "热销排行",
      "prod_id": 5003,
      "BOOK_SYNOPSIS": "",
      "BOOK_COPYRIGHT_MSG": "",
      "BOOK_REMARK": "饿瑞特股份让他后台热风脱衣有肉GV不同意见你同意姐一年 热个人突然突然被特然热不热二GREGRE个热 ",
      "BOOK_FORMAT": "全开",
      "BOOK_CLC_CASCADID": [
        "29635"
      ],
      "prod_member_price": 12,
      "BOOK_FITMENT": "234",
      "BOOK_TEXT_NUM": 23,
      "BOOK_PRINTED_SHEETS": 2332,
      "id": "551",
      "pub_a_order1": -9610161,
      "pub_resource_type": "BOOK",
      "BOOK_CLC_CASCADID_1": [
        "29635"
      ],
      "BOOK_BOOK_CASCADID_1": [
        "81044"
      ],
      "pub_a_order": -9610161.6000131,
      "pub_a_order2": 6.000131E9,
      "pub_star_num": 0,
      "prod_sale_price": 12,
      "BOOK_KEYWORDS": "3234",
      "BOOK_DEPART": "而我few",
      "pub_resource_id": 377469,
      "pub_status": 1,
      "BOOK_PRESS_NAME": "南京",
      "pub_comment_num": 0,
      "BOOK_PROOF_EDITOR": "而分为",
      "pub_click_num": 0,
      "BOOK_WORDS": 23232,
      "BOOK_BOOK_CAT": "高等教育",
      "BOOK_EDITOR": "额外股份而",
      "pub_sales_num": 0,
      "prod_code": "178800005063",
      "BOOK_COVER_DESIGNER": "冯伟峰违法",
      "pub_downloads_num": 0,
      "BOOK_SERIES_NAME": "577900",
      "pub_read_num": 36,
      "BOOK_MAJOR_EDITOR": "冯伟峰违法",
      "BOOK_EB_PRICE": 12,
      "BOOK_PUBDATE": 1513094400000,
      "BOOK_BOOK_CATID": 81044,
      "prod_product_type": "94",
      "BOOK_COPY_DESIGNER": "范围分为",
      "pub_site_id": 2,
      "BOOK_PRINT_COMPANY": "234323",
      "pub_like_num": 0,
      "BOOK_LANGUAGE": "中文",
      "BOOK_BOOK_CASCADID": [
        "81044"
      ],
      "BOOK_PRINT_VERSION": 23,
      "pub_lastmodified": 1514276172000,
      "BOOK_CLC_CATID": 29635,
      "prod_name": "重塑心灵",
      "BOOK_CLC_CAT": "马克思主义、列宁主义、毛泽东思想、邓小平理论",
      "pub_resource_name": "重塑心灵",
      "BOOK_BSN": "567890876578",
      "BOOK_PRICE": 21,
      "pub_col_id": 131,
      "_version_": 1589624742616236032,
      "pub_content_type": "94",
      "pub_picSmall": "/portal/file/covjpg/23880DDWLEJFY0526144_s.jpg",
      "BOOK_SYS_CREATED": 1513854300707,
      "pub_picMiddle": "/portal/file/covjpg/23880DDWLEJFY0526144_m.jpg",
      "BOOK_BOOK_VERSION": 43,
      "prod_resource_type": "BOOK"
    },
    {
      "BOOK_SYS_AUTHORS": "智享测试",
      "BOOK_TEXT_TYPE": "",
      "pub_is_eb": 1,
      "pub_picBig": "/portal/file/covjpg/124SRB5BJB67L3635684.jpg",
      "BOOK_SYS_TOPIC": "测试轮播图（邓林）",
      "pub_created": 1514276216000,
      "BOOK_ISBN": "122781738",
      "pub_col_name": "热销排行",
      "prod_id": 5087,
      "BOOK_SYNOPSIS": "",
      "BOOK_COPYRIGHT_MSG": "",
      "BOOK_REMARK": "",
      "BOOK_FORMAT": "全开",
      "prod_member_price": 2,
      "BOOK_FITMENT": "",
      "id": "635",
      "pub_a_order1": -9610161,
      "pub_resource_type": "BOOK",
      "BOOK_BOOK_CASCADID_1": [
        "81675"
      ],
      "pub_a_order": -9610161.6000131,
      "pub_a_order2": 6.000131E9,
      "pub_star_num": 0,
      "prod_sale_price": 2,
      "BOOK_KEYWORDS": "",
      "BOOK_DEPART": "",
      "pub_resource_id": 374890,
      "pub_status": 1,
      "BOOK_PRESS_NAME": "测试出版社",
      "pub_comment_num": 0,
      "BOOK_PROOF_EDITOR": "",
      "pub_click_num": 0,
      "BOOK_BOOK_CAT": "教育社",
      "pub_POSTER": [
        "/portal/file/image/123VQSTFTBADV3607557.jpg"
      ],
      "BOOK_EDITOR": "",
      "pub_sales_num": 0,
      "prod_code": "178800005147",
      "BOOK_COVER_DESIGNER": "",
      "pub_downloads_num": 0,
      "BOOK_SERIES_NAME": "",
      "pub_read_num": 32,
      "BOOK_MAJOR_EDITOR": "",
      "BOOK_EB_PRICE": 2,
      "BOOK_BOOK_CATID": 81675,
      "prod_product_type": "94",
      "BOOK_COPY_DESIGNER": "",
      "pub_site_id": 2,
      "BOOK_PRINT_COMPANY": "",
      "pub_like_num": 0,
      "BOOK_LANGUAGE": "中文",
      "BOOK_BOOK_CASCADID": [
        "81675"
      ],
      "BOOK_PRINT_VERSION": 1,
      "pub_lastmodified": 1514276180000,
      "prod_name": "测试轮播图（邓林）",
      "BOOK_CLC_CAT": "",
      "pub_resource_name": "测试轮播图（邓林）",
      "BOOK_BSN": "",
      "BOOK_PRICE": 5,
      "pub_col_id": 131,
      "_version_": 1589624757436809216,
      "pub_content_type": "94",
      "pub_picSmall": "/portal/file/covjpg/124SRB5BJB67L3635684_s.jpg",
      "BOOK_SYS_CREATED": 1509441144107,
      "pub_picMiddle": "/portal/file/covjpg/124SRB5BJB67L3635684_m.jpg",
      "BOOK_BOOK_VERSION": 1,
      "prod_resource_type": "BOOK"
    }
  ],
  "success": true,
  "pageNo": 1,
  "totalPages": 26,
  "first": 1
}
